电子线路/电子线路实验/上机原文件/3.18/yiwei/simulation/qsim/yiwei.msim.vcd
$comment
	File created using the following command:
		vcd file yiwei.msim.vcd -direction
$end
$date
	Tue Mar 25 16:49:05 2025
$end
$version
	ModelSim Version 10.1d
$end
$timescale
	1ps
$end
$scope module yiwei_vlg_vec_tst $end
$var reg 1 ! CLK $end
$var reg 1 " CLR $end
$var reg 1 # PRN $end
$var wire 1 $ a0 $end
$var wire 1 % a1 $end
$var wire 1 & a2 $end
$var wire 1 ' a3 $end
$var wire 1 ( a4 $end
$var wire 1 ) a5 $end
$var wire 1 * a6 $end
$var wire 1 + a7 $end
$var wire 1 , a8 $end
$var wire 1 - a9 $end
$var wire 1 . sampler $end
$scope module i1 $end
$var wire 1 / gnd $end
$var wire 1 0 vcc $end
$var wire 1 1 unknown $end
$var tri1 1 2 devclrn $end
$var tri1 1 3 devpor $end
$var tri1 1 4 devoe $end
$var wire 1 5 a0~output_o $end
$var wire 1 6 a1~output_o $end
$var wire 1 7 a2~output_o $end
$var wire 1 8 a3~output_o $end
$var wire 1 9 a4~output_o $end
$var wire 1 : a5~output_o $end
$var wire 1 ; a6~output_o $end
$var wire 1 < a7~output_o $end
$var wire 1 = a8~output_o $end
$var wire 1 > a9~output_o $end
$var wire 1 ? CLR~input_o $end
$var wire 1 @ PRN~input_o $end
$var wire 1 A inst~1_combout $end
$var wire 1 B CLK~input_o $end
$var wire 1 C CLK~inputclkctrl_outclk $end
$var wire 1 D CLR~inputclkctrl_outclk $end
$var wire 1 E inst4~q $end
$var wire 1 F inst1~feeder_combout $end
$var wire 1 G inst1~q $end
$var wire 1 H inst2~feeder_combout $end
$var wire 1 I inst2~q $end
$var wire 1 J inst7~feeder_combout $end
$var wire 1 K inst7~q $end
$var wire 1 L inst3~feeder_combout $end
$var wire 1 M inst3~q $end
$var wire 1 N inst5~feeder_combout $end
$var wire 1 O inst5~q $end
$var wire 1 P inst6~feeder_combout $end
$var wire 1 Q inst6~q $end
$var wire 1 R inst8~feeder_combout $end
$var wire 1 S inst8~q $end
$var wire 1 T inst9~feeder_combout $end
$var wire 1 U inst9~q $end
$var wire 1 V inst~3_combout $end
$var wire 1 W inst~0_combout $end
$var wire 1 X inst~_emulated_q $end
$var wire 1 Y inst~2_combout $end
$upscope $end
$upscope $end
$enddefinitions $end
#0
$dumpvars
0!
1"
0#
1$
0%
0&
0'
0(
0)
0*
0+
0,
0-
x.
0/
10
x1
12
13
14
15
06
07
08
09
0:
0;
0<
0=
0>
1?
0@
1A
0B
0C
1D
0E
0F
0G
0H
0I
0J
0K
0L
0M
0N
0O
0P
0Q
0R
0S
0T
0U
1V
1W
0X
1Y
$end
#10000
1!
1B
1C
0.
1E
1F
16
1%
#20000
0!
0B
0C
1.
#30000
1!
1B
1C
0.
1G
1H
17
1&
#40000
0!
0B
0C
1.
#50000
1!
1B
1C
0.
1I
1J
18
1'
#60000
0!
0B
0C
1.
#70000
1#
1!
1@
1B
1C
0.
0W
1K
1L
19
1(
#80000
0!
0B
0C
1.
#90000
1!
1B
1C
0.
1X
1M
1N
1:
1)
0Y
05
0$
#100000
0!
0B
0C
1.
#110000
1!
1B
1C
0.
1O
0E
1P
0F
1;
06
1*
0%
#120000
0!
0B
0C
1.
#130000
1!
1B
1C
0.
1Q
0G
1R
0H
1<
07
1+
0&
#140000
0!
0B
0C
1.
#150000
1!
1B
1C
0.
1S
0I
1T
0J
1=
08
1,
0'
#160000
0!
0B
0C
1.
#170000
1!
1B
1C
0.
1U
0K
0V
0L
1>
09
1-
0(
#180000
0!
0B
0C
1.
#190000
1!
1B
1C
0.
0X
0M
0N
0:
0)
1Y
15
1$
#200000
0!
0B
0C
1.
#210000
1!
1B
1C
0.
0O
1E
0P
1F
0;
16
0*
1%
#220000
0!
0B
0C
1.
#230000
1!
1B
1C
0.
0Q
1G
0R
1H
0<
17
0+
1&
#240000
0!
0B
0C
1.
#250000
1!
1B
1C
0.
0S
1I
0T
1J
0=
18
0,
1'
#260000
0!
0B
0C
1.
#270000
1!
1B
1C
0.
0U
1K
1V
1L
0>
19
0-
1(
#280000
0!
0B
0C
1.
#290000
1!
1B
1C
0.
1X
1M
1N
1:
1)
0Y
05
0$
#300000
0!
0B
0C
1.
#310000
1!
1B
1C
0.
1O
0E
1P
0F
1;
06
1*
0%
#320000
0!
0B
0C
1.
#330000
1!
1B
1C
0.
1Q
0G
1R
0H
1<
07
1+
0&
#340000
0!
0B
0C
1.
#350000
1!
1B
1C
0.
1S
0I
1T
0J
1=
08
1,
0'
#360000
0!
0B
0C
1.
#370000
1!
1B
1C
0.
1U
0K
0V
0L
1>
09
1-
0(
#380000
0!
0B
0C
1.
#390000
1!
1B
1C
0.
0X
0M
0N
0:
0)
1Y
15
1$
#400000
0!
0B
0C
1.
#410000
1!
1B
1C
0.
0O
1E
0P
1F
0;
16
0*
1%
#420000
0!
0B
0C
1.
#430000
1!
1B
1C
0.
0Q
1G
0R
1H
0<
17
0+
1&
#440000
0!
0B
0C
1.
#450000
1!
1B
1C
0.
0S
1I
0T
1J
0=
18
0,
1'
#460000
0!
0B
0C
1.
#470000
1!
1B
1C
0.
0U
1K
1V
1L
0>
19
0-
1(
#480000
0!
0B
0C
1.
#490000
1!
1B
1C
0.
1X
1M
1N
1:
1)
0Y
05
0$
#500000
0!
0B
0C
1.
#510000
1!
1B
1C
0.
1O
0E
1P
0F
1;
06
1*
0%
#520000
0!
0B
0C
1.
#530000
1!
1B
1C
0.
1Q
0G
1R
0H
1<
07
1+
0&
#540000
0!
0B
0C
1.
#550000
1!
1B
1C
0.
1S
0I
1T
0J
1=
08
1,
0'
#560000
0!
0B
0C
1.
#570000
1!
1B
1C
0.
1U
0K
0V
0L
1>
09
1-
0(
#580000
0!
0B
0C
1.
#590000
1!
1B
1C
0.
0X
0M
0N
0:
0)
1Y
15
1$
#600000
0!
0B
0C
1.
#610000
1!
1B
1C
0.
0O
1E
0P
1F
0;
16
0*
1%
#620000
0!
0B
0C
1.
#630000
1!
1B
1C
0.
0Q
1G
0R
1H
0<
17
0+
1&
#640000
0!
0B
0C
1.
#650000
1!
1B
1C
0.
0S
1I
0T
1J
0=
18
0,
1'
#660000
0!
0B
0C
1.
#670000
1!
1B
1C
0.
0U
1K
1V
1L
0>
19
0-
1(
#680000
0!
0B
0C
1.
#690000
1!
1B
1C
0.
1X
1M
1N
1:
1)
0Y
05
0$
#700000
0!
0B
0C
1.
#710000
1!
1B
1C
0.
1O
0E
1P
0F
1;
06
1*
0%
#720000
0!
0B
0C
1.
#730000
1!
1B
1C
0.
1Q
0G
1R
0H
1<
07
1+
0&
#740000
0!
0B
0C
1.
#750000
1!
1B
1C
0.
1S
0I
1T
0J
1=
08
1,
0'
#760000
0!
0B
0C
1.
#770000
1!
1B
1C
0.
1U
0K
0V
0L
1>
09
1-
0(
#780000
0!
0B
0C
1.
#790000
1!
1B
1C
0.
0X
0M
0N
0:
0)
1Y
15
1$
#800000
0!
0B
0C
1.
#810000
1!
1B
1C
0.
0O
1E
0P
1F
0;
16
0*
1%
#820000
0!
0B
0C
1.
#830000
1!
1B
1C
0.
0Q
1G
0R
1H
0<
17
0+
1&
#840000
0!
0B
0C
1.
#850000
1!
1B
1C
0.
0S
1I
0T
1J
0=
18
0,
1'
#860000
0!
0B
0C
1.
#870000
1!
1B
1C
0.
0U
1K
1V
1L
0>
19
0-
1(
#880000
0!
0B
0C
1.
#890000
1!
1B
1C
0.
1X
1M
1N
1:
1)
0Y
05
0$
#900000
0!
0B
0C
1.
#910000
1!
1B
1C
0.
1O
0E
1P
0F
1;
06
1*
0%
#920000
0!
0B
0C
1.
#930000
1!
1B
1C
0.
1Q
0G
1R
0H
1<
07
1+
0&
#940000
0!
0B
0C
1.
#950000
1!
1B
1C
0.
1S
0I
1T
0J
1=
08
1,
0'
#960000
0!
0B
0C
1.
#970000
1!
1B
1C
0.
1U
0K
0V
0L
1>
09
1-
0(
#980000
0!
0B
0C
1.
#990000
1!
1B
1C
0.
0X
0M
0N
0:
0)
1Y
15
1$
