电子线路/电子线路实验/上机原文件/3.11/3/simulation/qsim/shao1.msim.vcd
$comment
	File created using the following command:
		vcd file shao1.msim.vcd -direction
$end
$date
	Tue Mar 11 16:24:50 2025
$end
$version
	ModelSim Version 10.1d
$end
$timescale
	1ps
$end
$scope module shao1_vlg_vec_tst $end
$var reg 1 ! A1 $end
$var reg 1 " A2 $end
$var reg 1 # A3 $end
$var reg 1 $ A4 $end
$var reg 1 % B1 $end
$var reg 1 & B2 $end
$var reg 1 ' B3 $end
$var reg 1 ( B4 $end
$var reg 1 ) C0 $end
$var wire 1 * C4 $end
$var wire 1 + S1 $end
$var wire 1 , S2 $end
$var wire 1 - S3 $end
$var wire 1 . S4 $end
$var wire 1 / sampler $end
$scope module i1 $end
$var wire 1 0 gnd $end
$var wire 1 1 vcc $end
$var wire 1 2 unknown $end
$var tri1 1 3 devclrn $end
$var tri1 1 4 devpor $end
$var tri1 1 5 devoe $end
$var wire 1 6 S1~output_o $end
$var wire 1 7 S2~output_o $end
$var wire 1 8 S3~output_o $end
$var wire 1 9 S4~output_o $end
$var wire 1 : C4~output_o $end
$var wire 1 ; B1~input_o $end
$var wire 1 < C0~input_o $end
$var wire 1 = A1~input_o $end
$var wire 1 > inst|42~0_combout $end
$var wire 1 ? inst|54~0_combout $end
$var wire 1 @ inst|18~0_combout $end
$var wire 1 A A2~input_o $end
$var wire 1 B B2~input_o $end
$var wire 1 C inst|43~combout $end
$var wire 1 D inst|20~0_combout $end
$var wire 1 E inst|24~combout $end
$var wire 1 F inst|51~0_combout $end
$var wire 1 G B3~input_o $end
$var wire 1 H A3~input_o $end
$var wire 1 I inst|44~combout $end
$var wire 1 J A4~input_o $end
$var wire 1 K B4~input_o $end
$var wire 1 L inst|45~0_combout $end
$var wire 1 M inst|45~1_combout $end
$var wire 1 N inst|45~2_combout $end
$var wire 1 O inst|2~0_combout $end
$upscope $end
$upscope $end
$enddefinitions $end
#0
$dumpvars
0!
0"
0#
0$
0%
0&
0'
0(
0)
0*
0+
0,
0-
0.
x/
00
11
x2
13
14
15
06
07
08
09
0:
0;
0<
0=
0>
1?
1@
0A
0B
1C
1D
0E
1F
0G
0H
1I
0J
0K
0L
0M
0N
0O
$end
#5000
1!
1%
1)
1=
1;
1<
0/
1L
0@
0?
1>
0C
16
1+
17
1,
#10000
1"
1&
0!
0%
0)
1A
1B
0=
0;
0<
1/
1E
0D
0L
1@
1?
0>
1L
0F
1C
06
0+
0I
07
0,
18
1-
#15000
1!
1%
1)
1=
1;
1<
0/
0@
0?
1>
0C
16
1+
17
1,
#20000
1#
1'
0"
0&
0!
0%
0)
1H
1G
0A
0B
0=
0;
0<
1/
1M
0E
1D
1@
1?
0>
0L
1F
1C
06
0+
1N
1I
07
19
0,
1.
08
0-
#25000
1!
1%
1)
1=
1;
1<
0/
1L
0@
0?
1>
0C
16
1+
17
1,
#30000
1"
1&
0!
0%
0)
1A
1B
0=
0;
0<
1/
1E
0D
0L
1@
1?
0>
1L
0F
1C
06
0+
0I
07
0,
18
1-
#35000
1!
1%
1)
1=
1;
1<
0/
0@
0?
1>
0C
16
1+
17
1,
#40000
1$
1(
0#
0'
0"
0&
0!
0%
0)
1J
1K
0H
0G
0A
0B
0=
0;
0<
1/
0M
0E
1D
1@
1?
1O
0>
0L
1F
1C
1:
06
1*
0+
0N
1I
07
09
0,
0.
08
0-
#45000
1!
1%
1)
1=
1;
1<
0/
1L
0@
0?
1>
0C
16
1+
17
1,
#50000
1"
1&
0!
0%
0)
1A
1B
0=
0;
0<
1/
1E
0D
0L
1@
1?
0>
1L
0F
1C
06
0+
0I
07
0,
18
1-
#55000
1!
1%
1)
1=
1;
1<
0/
0@
0?
1>
0C
16
1+
17
1,
#60000
1#
1'
0"
0&
0!
0%
0)
1H
1G
0A
0B
0=
0;
0<
1/
1M
0E
1D
1@
1?
0>
0L
1F
1C
06
0+
1N
1I
07
19
0,
1.
08
0-
#65000
1!
1%
1)
1=
1;
1<
0/
1L
0@
0?
1>
0C
16
1+
17
1,
#70000
1"
1&
0!
0%
0)
1A
1B
0=
0;
0<
1/
1E
0D
0L
1@
1?
0>
1L
0F
1C
06
0+
0I
07
0,
18
1-
#75000
1!
1%
1)
1=
1;
1<
0/
0@
0?
1>
0C
16
1+
17
1,
#80000
0$
0(
0#
0'
0"
0&
0!
0%
0)
0J
0K
0H
0G
0A
0B
0=
0;
0<
1/
0M
0E
1D
1@
1?
0O
0>
0L
1F
1C
0:
06
0*
0+
0N
1I
07
09
0,
0.
08
0-
#85000
1!
1%
1)
1=
1;
1<
0/
1L
0@
0?
1>
0C
16
1+
17
1,
#90000
1"
1&
0!
0%
0)
1A
1B
0=
0;
0<
1/
1E
0D
0L
1@
1?
0>
1L
0F
1C
06
0+
0I
07
0,
18
1-
#95000
1!
1%
1)
1=
1;
1<
0/
0@
0?
1>
0C
16
1+
17
1,
#100000
1#
1'
0"
0&
0!
0%
0)
1H
1G
0A
0B
0=
0;
0<
1/
1M
0E
1D
1@
1?
0>
0L
1F
1C
06
0+
1N
1I
07
19
0,
1.
08
0-
#105000
1!
1%
1)
1=
1;
1<
0/
1L
0@
0?
1>
0C
16
1+
17
1,
#110000
1"
1&
0!
0%
0)
1A
1B
0=
0;
0<
1/
1E
0D
0L
1@
1?
0>
1L
0F
1C
06
0+
0I
07
0,
18
1-
#115000
1!
1%
1)
1=
1;
1<
0/
0@
0?
1>
0C
16
1+
17
1,
#120000
1$
1(
0#
0'
0"
0&
0!
0%
0)
1J
1K
0H
0G
0A
0B
0=
0;
0<
1/
0M
0E
1D
1@
1?
1O
0>
0L
1F
1C
1:
06
1*
0+
0N
1I
07
09
0,
0.
08
0-
#125000
1!
1%
1)
1=
1;
1<
0/
1L
0@
0?
1>
0C
16
1+
17
1,
#130000
1"
1&
0!
0%
0)
1A
1B
0=
0;
0<
1/
1E
0D
0L
1@
1?
0>
1L
0F
1C
06
0+
0I
07
0,
18
1-
#135000
1!
1%
1)
1=
1;
1<
0/
0@
0?
1>
0C
16
1+
17
1,
#140000
1#
1'
0"
0&
0!
0%
0)
1H
1G
0A
0B
0=
0;
0<
1/
1M
0E
1D
1@
1?
0>
0L
1F
1C
06
0+
1N
1I
07
19
0,
1.
08
0-
#145000
1!
1%
1)
1=
1;
1<
0/
1L
0@
0?
1>
0C
16
1+
17
1,
#150000
1"
1&
0!
0%
0)
1A
1B
0=
0;
0<
1/
1E
0D
0L
1@
1?
0>
1L
0F
1C
06
0+
0I
07
0,
18
1-
#155000
1!
1%
1)
1=
1;
1<
0/
0@
0?
1>
0C
16
1+
17
1,
#160000
0$
0(
0#
0'
0"
0&
0!
0%
0)
0J
0K
0H
0G
0A
0B
0=
0;
0<
1/
0M
0E
1D
1@
1?
0O
0>
0L
1F
1C
0:
06
0*
0+
0N
1I
07
09
0,
0.
08
0-
#165000
1!
1%
1)
1=
1;
1<
0/
1L
0@
0?
1>
0C
16
1+
17
1,
#170000
1"
1&
0!
0%
0)
1A
1B
0=
0;
0<
1/
1E
0D
0L
1@
1?
0>
1L
0F
1C
06
0+
0I
07
0,
18
1-
#175000
1!
1%
1)
1=
1;
1<
0/
0@
0?
1>
0C
16
1+
17
1,
#180000
1#
1'
0"
0&
0!
0%
0)
1H
1G
0A
0B
0=
0;
0<
1/
1M
0E
1D
1@
1?
0>
0L
1F
1C
06
0+
1N
1I
07
19
0,
1.
08
0-
#185000
1!
1%
1)
1=
1;
1<
0/
1L
0@
0?
1>
0C
16
1+
17
1,
#190000
1"
1&
0!
0%
0)
1A
1B
0=
0;
0<
1/
1E
0D
0L
1@
1?
0>
1L
0F
1C
06
0+
0I
07
0,
18
1-
#195000
1!
1%
1)
1=
1;
1<
0/
0@
0?
1>
0C
16
1+
17
1,
#200000
1$
1(
0#
0'
0"
0&
0!
0%
0)
1J
1K
0H
0G
0A
0B
0=
0;
0<
1/
0M
0E
1D
1@
1?
1O
0>
0L
1F
1C
1:
06
1*
0+
0N
1I
07
09
0,
0.
08
0-
#205000
1!
1%
1)
1=
1;
1<
0/
1L
0@
0?
1>
0C
16
1+
17
1,
#210000
1"
1&
0!
0%
0)
1A
1B
0=
0;
0<
1/
1E
0D
0L
1@
1?
0>
1L
0F
1C
06
0+
0I
07
0,
18
1-
#215000
1!
1%
1)
1=
1;
1<
0/
0@
0?
1>
0C
16
1+
17
1,
#220000
1#
1'
0"
0&
0!
0%
0)
1H
1G
0A
0B
0=
0;
0<
1/
1M
0E
1D
1@
1?
0>
0L
1F
1C
06
0+
1N
1I
07
19
0,
1.
08
0-
#225000
1!
1%
1)
1=
1;
1<
0/
1L
0@
0?
1>
0C
16
1+
17
1,
#230000
1"
1&
0!
0%
0)
1A
1B
0=
0;
0<
1/
1E
0D
0L
1@
1?
0>
1L
0F
1C
06
0+
0I
07
0,
18
1-
#235000
1!
1%
1)
1=
1;
1<
0/
0@
0?
1>
0C
16
1+
17
1,
#240000
0$
0(
0#
0'
0"
0&
0!
0%
0)
0J
0K
0H
0G
0A
0B
0=
0;
0<
1/
0M
0E
1D
1@
1?
0O
0>
0L
1F
1C
0:
06
0*
0+
0N
1I
07
09
0,
0.
08
0-
#245000
1!
1%
1)
1=
1;
1<
0/
1L
0@
0?
1>
0C
16
1+
17
1,
#250000
1"
1&
0!
0%
0)
1A
1B
0=
0;
0<
1/
1E
0D
0L
1@
1?
0>
1L
0F
1C
06
0+
0I
07
0,
18
1-
#255000
1!
1%
1)
1=
1;
1<
0/
0@
0?
1>
0C
16
1+
17
1,
#260000
1#
1'
0"
0&
0!
0%
0)
1H
1G
0A
0B
0=
0;
0<
1/
1M
0E
1D
1@
1?
0>
0L
1F
1C
06
0+
1N
1I
07
19
0,
1.
08
0-
#265000
1!
1%
1)
1=
1;
1<
0/
1L
0@
0?
1>
0C
16
1+
17
1,
#270000
1"
1&
0!
0%
0)
1A
1B
0=
0;
0<
1/
1E
0D
0L
1@
1?
0>
1L
0F
1C
06
0+
0I
07
0,
18
1-
#275000
1!
1%
1)
1=
1;
1<
0/
0@
0?
1>
0C
16
1+
17
1,
#280000
1$
1(
0#
0'
0"
0&
0!
0%
0)
1J
1K
0H
0G
0A
0B
0=
0;
0<
1/
0M
0E
1D
1@
1?
1O
0>
0L
1F
1C
1:
06
1*
0+
0N
1I
07
09
0,
0.
08
0-
#285000
1!
1%
1)
1=
1;
1<
0/
1L
0@
0?
1>
0C
16
1+
17
1,
#290000
1"
1&
0!
0%
0)
1A
1B
0=
0;
0<
1/
1E
0D
0L
1@
1?
0>
1L
0F
1C
06
0+
0I
07
0,
18
1-
#295000
1!
1%
1)
1=
1;
1<
0/
0@
0?
1>
0C
16
1+
17
1,
#300000
1#
1'
0"
0&
0!
0%
0)
1H
1G
0A
0B
0=
0;
0<
1/
1M
0E
1D
1@
1?
0>
0L
1F
1C
06
0+
1N
1I
07
19
0,
1.
08
0-
#305000
1!
1%
1)
1=
1;
1<
0/
1L
0@
0?
1>
0C
16
1+
17
1,
#310000
1"
1&
0!
0%
0)
1A
1B
0=
0;
0<
1/
1E
0D
0L
1@
1?
0>
1L
0F
1C
06
0+
0I
07
0,
18
1-
#315000
1!
1%
1)
1=
1;
1<
0/
0@
0?
1>
0C
16
1+
17
1,
#320000
0$
0(
0#
0'
0"
0&
0!
0%
0)
0J
0K
0H
0G
0A
0B
0=
0;
0<
1/
0M
0E
1D
1@
1?
0O
0>
0L
1F
1C
0:
06
0*
0+
0N
1I
07
09
0,
0.
08
0-
#325000
1!
1%
1)
1=
1;
1<
0/
1L
0@
0?
1>
0C
16
1+
17
1,
#330000
1"
1&
0!
0%
0)
1A
1B
0=
0;
0<
1/
1E
0D
0L
1@
1?
0>
1L
0F
1C
06
0+
0I
07
0,
18
1-
#335000
1!
1%
1)
1=
1;
1<
0/
0@
0?
1>
0C
16
1+
17
1,
#340000
1#
1'
0"
0&
0!
0%
0)
1H
1G
0A
0B
0=
0;
0<
1/
1M
0E
1D
1@
1?
0>
0L
1F
1C
06
0+
1N
1I
07
19
0,
1.
08
0-
#345000
1!
1%
1)
1=
1;
1<
0/
1L
0@
0?
1>
0C
16
1+
17
1,
#350000
1"
1&
0!
0%
0)
1A
1B
0=
0;
0<
1/
1E
0D
0L
1@
1?
0>
1L
0F
1C
06
0+
0I
07
0,
18
1-
#355000
1!
1%
1)
1=
1;
1<
0/
0@
0?
1>
0C
16
1+
17
1,
#360000
1$
1(
0#
0'
0"
0&
0!
0%
0)
1J
1K
0H
0G
0A
0B
0=
0;
0<
1/
0M
0E
1D
1@
1?
1O
0>
0L
1F
1C
1:
06
1*
0+
0N
1I
07
09
0,
0.
08
0-
#365000
1!
1%
1)
1=
1;
1<
0/
1L
0@
0?
1>
0C
16
1+
17
1,
#370000
1"
1&
0!
0%
0)
1A
1B
0=
0;
0<
1/
1E
0D
0L
1@
1?
0>
1L
0F
1C
06
0+
0I
07
0,
18
1-
#375000
1!
1%
1)
1=
1;
1<
0/
0@
0?
1>
0C
16
1+
17
1,
#380000
1#
1'
0"
0&
0!
0%
0)
1H
1G
0A
0B
0=
0;
0<
1/
1M
0E
1D
1@
1?
0>
0L
1F
1C
06
0+
1N
1I
07
19
0,
1.
08
0-
#385000
1!
1%
1)
1=
1;
1<
0/
1L
0@
0?
1>
0C
16
1+
17
1,
#390000
1"
1&
0!
0%
0)
1A
1B
0=
0;
0<
1/
1E
0D
0L
1@
1?
0>
1L
0F
1C
06
0+
0I
07
0,
18
1-
#395000
1!
1%
1)
1=
1;
1<
0/
0@
0?
1>
0C
16
1+
17
1,
#400000
0$
0(
0#
0'
0"
0&
0!
0%
0)
0J
0K
0H
0G
0A
0B
0=
0;
0<
1/
0M
0E
1D
1@
1?
0O
0>
0L
1F
1C
0:
06
0*
0+
0N
1I
07
09
0,
0.
08
0-
#405000
1!
1%
1)
1=
1;
1<
0/
1L
0@
0?
1>
0C
16
1+
17
1,
#410000
1"
1&
0!
0%
0)
1A
1B
0=
0;
0<
1/
1E
0D
0L
1@
1?
0>
1L
0F
1C
06
0+
0I
07
0,
18
1-
#415000
1!
1%
1)
1=
1;
1<
0/
0@
0?
1>
0C
16
1+
17
1,
#420000
1#
1'
0"
0&
0!
0%
0)
1H
1G
0A
0B
0=
0;
0<
1/
1M
0E
1D
1@
1?
0>
0L
1F
1C
06
0+
1N
1I
07
19
0,
1.
08
0-
#425000
1!
1%
1)
1=
1;
1<
0/
1L
0@
0?
1>
0C
16
1+
17
1,
#430000
1"
1&
0!
0%
0)
1A
1B
0=
0;
0<
1/
1E
0D
0L
1@
1?
0>
1L
0F
1C
06
0+
0I
07
0,
18
1-
#435000
1!
1%
1)
1=
1;
1<
0/
0@
0?
1>
0C
16
1+
17
1,
#440000
1$
1(
0#
0'
0"
0&
0!
0%
0)
1J
1K
0H
0G
0A
0B
0=
0;
0<
1/
0M
0E
1D
1@
1?
1O
0>
0L
1F
1C
1:
06
1*
0+
0N
1I
07
09
0,
0.
08
0-
#445000
1!
1%
1)
1=
1;
1<
0/
1L
0@
0?
1>
0C
16
1+
17
1,
#450000
1"
1&
0!
0%
0)
1A
1B
0=
0;
0<
1/
1E
0D
0L
1@
1?
0>
1L
0F
1C
06
0+
0I
07
0,
18
1-
#455000
1!
1%
1)
1=
1;
1<
0/
0@
0?
1>
0C
16
1+
17
1,
#460000
1#
1'
0"
0&
0!
0%
0)
1H
1G
0A
0B
0=
0;
0<
1/
1M
0E
1D
1@
1?
0>
0L
1F
1C
06
0+
1N
1I
07
19
0,
1.
08
0-
#465000
1!
1%
1)
1=
1;
1<
0/
1L
0@
0?
1>
0C
16
1+
17
1,
#470000
1"
1&
0!
0%
0)
1A
1B
0=
0;
0<
1/
1E
0D
0L
1@
1?
0>
1L
0F
1C
06
0+
0I
07
0,
18
1-
#475000
1!
1%
1)
1=
1;
1<
0/
0@
0?
1>
0C
16
1+
17
1,
#480000
0$
0(
0#
0'
0"
0&
0!
0%
0)
0J
0K
0H
0G
0A
0B
0=
0;
0<
1/
0M
0E
1D
1@
1?
0O
0>
0L
1F
1C
0:
06
0*
0+
0N
1I
07
09
0,
0.
08
0-
#485000
1!
1%
1)
1=
1;
1<
0/
1L
0@
0?
1>
0C
16
1+
17
1,
#490000
1"
1&
0!
0%
0)
1A
1B
0=
0;
0<
1/
1E
0D
0L
1@
1?
0>
1L
0F
1C
06
0+
0I
07
0,
18
1-
#495000
1!
1%
1)
1=
1;
1<
0/
0@
0?
1>
0C
16
1+
17
1,
#500000
1#
1'
0"
0&
0!
0%
0)
1H
1G
0A
0B
0=
0;
0<
1/
1M
0E
1D
1@
1?
0>
0L
1F
1C
06
0+
1N
1I
07
19
0,
1.
08
0-
#505000
1!
1%
1)
1=
1;
1<
0/
1L
0@
0?
1>
0C
16
1+
17
1,
#510000
1"
1&
0!
0%
0)
1A
1B
0=
0;
0<
1/
1E
0D
0L
1@
1?
0>
1L
0F
1C
06
0+
0I
07
0,
18
1-
#515000
1!
1%
1)
1=
1;
1<
0/
0@
0?
1>
0C
16
1+
17
1,
#520000
1$
1(
0#
0'
0"
0&
0!
0%
0)
1J
1K
0H
0G
0A
0B
0=
0;
0<
1/
0M
0E
1D
1@
1?
1O
0>
0L
1F
1C
1:
06
1*
0+
0N
1I
07
09
0,
0.
08
0-
#525000
1!
1%
1)
1=
1;
1<
0/
1L
0@
0?
1>
0C
16
1+
17
1,
#530000
1"
1&
0!
0%
0)
1A
1B
0=
0;
0<
1/
1E
0D
0L
1@
1?
0>
1L
0F
1C
06
0+
0I
07
0,
18
1-
#535000
1!
1%
1)
1=
1;
1<
0/
0@
0?
1>
0C
16
1+
17
1,
#540000
1#
1'
0"
0&
0!
0%
0)
1H
1G
0A
0B
0=
0;
0<
1/
1M
0E
1D
1@
1?
0>
0L
1F
1C
06
0+
1N
1I
07
19
0,
1.
08
0-
#545000
1!
1%
1)
1=
1;
1<
0/
1L
0@
0?
1>
0C
16
1+
17
1,
#550000
1"
1&
0!
0%
0)
1A
1B
0=
0;
0<
1/
1E
0D
0L
1@
1?
0>
1L
0F
1C
06
0+
0I
07
0,
18
1-
#555000
1!
1%
1)
1=
1;
1<
0/
0@
0?
1>
0C
16
1+
17
1,
#560000
0$
0(
0#
0'
0"
0&
0!
0%
0)
0J
0K
0H
0G
0A
0B
0=
0;
0<
1/
0M
0E
1D
1@
1?
0O
0>
0L
1F
1C
0:
06
0*
0+
0N
1I
07
09
0,
0.
08
0-
#565000
1!
1%
1)
1=
1;
1<
0/
1L
0@
0?
1>
0C
16
1+
17
1,
#570000
1"
1&
0!
0%
0)
1A
1B
0=
0;
0<
1/
1E
0D
0L
1@
1?
0>
1L
0F
1C
06
0+
0I
07
0,
18
1-
#575000
1!
1%
1)
1=
1;
1<
0/
0@
0?
1>
0C
16
1+
17
1,
#580000
1#
1'
0"
0&
0!
0%
0)
1H
1G
0A
0B
0=
0;
0<
1/
1M
0E
1D
1@
1?
0>
0L
1F
1C
06
0+
1N
1I
07
19
0,
1.
08
0-
#585000
1!
1%
1)
1=
1;
1<
0/
1L
0@
0?
1>
0C
16
1+
17
1,
#590000
1"
1&
0!
0%
0)
1A
1B
0=
0;
0<
1/
1E
0D
0L
1@
1?
0>
1L
0F
1C
06
0+
0I
07
0,
18
1-
#595000
1!
1%
1)
1=
1;
1<
0/
0@
0?
1>
0C
16
1+
17
1,
#600000
1$
1(
0#
0'
0"
0&
0!
0%
0)
1J
1K
0H
0G
0A
0B
0=
0;
0<
1/
0M
0E
1D
1@
1?
1O
0>
0L
1F
1C
1:
06
1*
0+
0N
1I
07
09
0,
0.
08
0-
#605000
1!
1%
1)
1=
1;
1<
0/
1L
0@
0?
1>
0C
16
1+
17
1,
#610000
1"
1&
0!
0%
0)
1A
1B
0=
0;
0<
1/
1E
0D
0L
1@
1?
0>
1L
0F
1C
06
0+
0I
07
0,
18
1-
#615000
1!
1%
1)
1=
1;
1<
0/
0@
0?
1>
0C
16
1+
17
1,
#620000
1#
1'
0"
0&
0!
0%
0)
1H
1G
0A
0B
0=
0;
0<
1/
1M
0E
1D
1@
1?
0>
0L
1F
1C
06
0+
1N
1I
07
19
0,
1.
08
0-
#625000
1!
1%
1)
1=
1;
1<
0/
1L
0@
0?
1>
0C
16
1+
17
1,
#630000
1"
1&
0!
0%
0)
1A
1B
0=
0;
0<
1/
1E
0D
0L
1@
1?
0>
1L
0F
1C
06
0+
0I
07
0,
18
1-
#635000
1!
1%
1)
1=
1;
1<
0/
0@
0?
1>
0C
16
1+
17
1,
#640000
0$
0(
0#
0'
0"
0&
0!
0%
0)
0J
0K
0H
0G
0A
0B
0=
0;
0<
1/
0M
0E
1D
1@
1?
0O
0>
0L
1F
1C
0:
06
0*
0+
0N
1I
07
09
0,
0.
08
0-
#645000
1!
1%
1)
1=
1;
1<
0/
1L
0@
0?
1>
0C
16
1+
17
1,
#650000
1"
1&
0!
0%
0)
1A
1B
0=
0;
0<
1/
1E
0D
0L
1@
1?
0>
1L
0F
1C
06
0+
0I
07
0,
18
1-
#655000
1!
1%
1)
1=
1;
1<
0/
0@
0?
1>
0C
16
1+
17
1,
#660000
1#
1'
0"
0&
0!
0%
0)
1H
1G
0A
0B
0=
0;
0<
1/
1M
0E
1D
1@
1?
0>
0L
1F
1C
06
0+
1N
1I
07
19
0,
1.
08
0-
#665000
1!
1%
1)
1=
1;
1<
0/
1L
0@
0?
1>
0C
16
1+
17
1,
#670000
1"
1&
0!
0%
0)
1A
1B
0=
0;
0<
1/
1E
0D
0L
1@
1?
0>
1L
0F
1C
06
0+
0I
07
0,
18
1-
#675000
1!
1%
1)
1=
1;
1<
0/
0@
0?
1>
0C
16
1+
17
1,
#680000
1$
1(
0#
0'
0"
0&
0!
0%
0)
1J
1K
0H
0G
0A
0B
0=
0;
0<
1/
0M
0E
1D
1@
1?
1O
0>
0L
1F
1C
1:
06
1*
0+
0N
1I
07
09
0,
0.
08
0-
#685000
1!
1%
1)
1=
1;
1<
0/
1L
0@
0?
1>
0C
16
1+
17
1,
#690000
1"
1&
0!
0%
0)
1A
1B
0=
0;
0<
1/
1E
0D
0L
1@
1?
0>
1L
0F
1C
06
0+
0I
07
0,
18
1-
#695000
1!
1%
1)
1=
1;
1<
0/
0@
0?
1>
0C
16
1+
17
1,
#700000
1#
1'
0"
0&
0!
0%
0)
1H
1G
0A
0B
0=
0;
0<
1/
1M
0E
1D
1@
1?
0>
0L
1F
1C
06
0+
1N
1I
07
19
0,
1.
08
0-
#705000
1!
1%
1)
1=
1;
1<
0/
1L
0@
0?
1>
0C
16
1+
17
1,
#710000
1"
1&
0!
0%
0)
1A
1B
0=
0;
0<
1/
1E
0D
0L
1@
1?
0>
1L
0F
1C
06
0+
0I
07
0,
18
1-
#715000
1!
1%
1)
1=
1;
1<
0/
0@
0?
1>
0C
16
1+
17
1,
#720000
0$
0(
0#
0'
0"
0&
0!
0%
0)
0J
0K
0H
0G
0A
0B
0=
0;
0<
1/
0M
0E
1D
1@
1?
0O
0>
0L
1F
1C
0:
06
0*
0+
0N
1I
07
09
0,
0.
08
0-
#725000
1!
1%
1)
1=
1;
1<
0/
1L
0@
0?
1>
0C
16
1+
17
1,
#730000
1"
1&
0!
0%
0)
1A
1B
0=
0;
0<
1/
1E
0D
0L
1@
1?
0>
1L
0F
1C
06
0+
0I
07
0,
18
1-
#735000
1!
1%
1)
1=
1;
1<
0/
0@
0?
1>
0C
16
1+
17
1,
#740000
1#
1'
0"
0&
0!
0%
0)
1H
1G
0A
0B
0=
0;
0<
1/
1M
0E
1D
1@
1?
0>
0L
1F
1C
06
0+
1N
1I
07
19
0,
1.
08
0-
#745000
1!
1%
1)
1=
1;
1<
0/
1L
0@
0?
1>
0C
16
1+
17
1,
#750000
1"
1&
0!
0%
0)
1A
1B
0=
0;
0<
1/
1E
0D
0L
1@
1?
0>
1L
0F
1C
06
0+
0I
07
0,
18
1-
#755000
1!
1%
1)
1=
1;
1<
0/
0@
0?
1>
0C
16
1+
17
1,
#760000
1$
1(
0#
0'
0"
0&
0!
0%
0)
1J
1K
0H
0G
0A
0B
0=
0;
0<
1/
0M
0E
1D
1@
1?
1O
0>
0L
1F
1C
1:
06
1*
0+
0N
1I
07
09
0,
0.
08
0-
#765000
1!
1%
1)
1=
1;
1<
0/
1L
0@
0?
1>
0C
16
1+
17
1,
#770000
1"
1&
0!
0%
0)
1A
1B
0=
0;
0<
1/
1E
0D
0L
1@
1?
0>
1L
0F
1C
06
0+
0I
07
0,
18
1-
#775000
1!
1%
1)
1=
1;
1<
0/
0@
0?
1>
0C
16
1+
17
1,
#780000
1#
1'
0"
0&
0!
0%
0)
1H
1G
0A
0B
0=
0;
0<
1/
1M
0E
1D
1@
1?
0>
0L
1F
1C
06
0+
1N
1I
07
19
0,
1.
08
0-
#785000
1!
1%
1)
1=
1;
1<
0/
1L
0@
0?
1>
0C
16
1+
17
1,
#790000
1"
1&
0!
0%
0)
1A
1B
0=
0;
0<
1/
1E
0D
0L
1@
1?
0>
1L
0F
1C
06
0+
0I
07
0,
18
1-
#795000
1!
1%
1)
1=
1;
1<
0/
0@
0?
1>
0C
16
1+
17
1,
#800000
0$
0(
0#
0'
0"
0&
0!
0%
0)
0J
0K
0H
0G
0A
0B
0=
0;
0<
1/
0M
0E
1D
1@
1?
0O
0>
0L
1F
1C
0:
06
0*
0+
0N
1I
07
09
0,
0.
08
0-
#805000
1!
1%
1)
1=
1;
1<
0/
1L
0@
0?
1>
0C
16
1+
17
1,
#810000
1"
1&
0!
0%
0)
1A
1B
0=
0;
0<
1/
1E
0D
0L
1@
1?
0>
1L
0F
1C
06
0+
0I
07
0,
18
1-
#815000
1!
1%
1)
1=
1;
1<
0/
0@
0?
1>
0C
16
1+
17
1,
#820000
1#
1'
0"
0&
0!
0%
0)
1H
1G
0A
0B
0=
0;
0<
1/
1M
0E
1D
1@
1?
0>
0L
1F
1C
06
0+
1N
1I
07
19
0,
1.
08
0-
#825000
1!
1%
1)
1=
1;
1<
0/
1L
0@
0?
1>
0C
16
1+
17
1,
#830000
1"
1&
0!
0%
0)
1A
1B
0=
0;
0<
1/
1E
0D
0L
1@
1?
0>
1L
0F
1C
06
0+
0I
07
0,
18
1-
#835000
1!
1%
1)
1=
1;
1<
0/
0@
0?
1>
0C
16
1+
17
1,
#840000
1$
1(
0#
0'
0"
0&
0!
0%
0)
1J
1K
0H
0G
0A
0B
0=
0;
0<
1/
0M
0E
1D
1@
1?
1O
0>
0L
1F
1C
1:
06
1*
0+
0N
1I
07
09
0,
0.
08
0-
#845000
1!
1%
1)
1=
1;
1<
0/
1L
0@
0?
1>
0C
16
1+
17
1,
#850000
1"
1&
0!
0%
0)
1A
1B
0=
0;
0<
1/
1E
0D
0L
1@
1?
0>
1L
0F
1C
06
0+
0I
07
0,
18
1-
#855000
1!
1%
1)
1=
1;
1<
0/
0@
0?
1>
0C
16
1+
17
1,
#860000
1#
1'
0"
0&
0!
0%
0)
1H
1G
0A
0B
0=
0;
0<
1/
1M
0E
1D
1@
1?
0>
0L
1F
1C
06
0+
1N
1I
07
19
0,
1.
08
0-
#865000
1!
1%
1)
1=
1;
1<
0/
1L
0@
0?
1>
0C
16
1+
17
1,
#870000
1"
1&
0!
0%
0)
1A
1B
0=
0;
0<
1/
1E
0D
0L
1@
1?
0>
1L
0F
1C
06
0+
0I
07
0,
18
1-
#875000
1!
1%
1)
1=
1;
1<
0/
0@
0?
1>
0C
16
1+
17
1,
#880000
0$
0(
0#
0'
0"
0&
0!
0%
0)
0J
0K
0H
0G
0A
0B
0=
0;
0<
1/
0M
0E
1D
1@
1?
0O
0>
0L
1F
1C
0:
06
0*
0+
0N
1I
07
09
0,
0.
08
0-
#885000
1!
1%
1)
1=
1;
1<
0/
1L
0@
0?
1>
0C
16
1+
17
1,
#890000
1"
1&
0!
0%
0)
1A
1B
0=
0;
0<
1/
1E
0D
0L
1@
1?
0>
1L
0F
1C
06
0+
0I
07
0,
18
1-
#895000
1!
1%
1)
1=
1;
1<
0/
0@
0?
1>
0C
16
1+
17
1,
#900000
1#
1'
0"
0&
0!
0%
0)
1H
1G
0A
0B
0=
0;
0<
1/
1M
0E
1D
1@
1?
0>
0L
1F
1C
06
0+
1N
1I
07
19
0,
1.
08
0-
#905000
1!
1%
1)
1=
1;
1<
0/
1L
0@
0?
1>
0C
16
1+
17
1,
#910000
1"
1&
0!
0%
0)
1A
1B
0=
0;
0<
1/
1E
0D
0L
1@
1?
0>
1L
0F
1C
06
0+
0I
07
0,
18
1-
#915000
1!
1%
1)
1=
1;
1<
0/
0@
0?
1>
0C
16
1+
17
1,
#920000
1$
1(
0#
0'
0"
0&
0!
0%
0)
1J
1K
0H
0G
0A
0B
0=
0;
0<
1/
0M
0E
1D
1@
1?
1O
0>
0L
1F
1C
1:
06
1*
0+
0N
1I
07
09
0,
0.
08
0-
#925000
1!
1%
1)
1=
1;
1<
0/
1L
0@
0?
1>
0C
16
1+
17
1,
#930000
1"
1&
0!
0%
0)
1A
1B
0=
0;
0<
1/
1E
0D
0L
1@
1?
0>
1L
0F
1C
06
0+
0I
07
0,
18
1-
#935000
1!
1%
1)
1=
1;
1<
0/
0@
0?
1>
0C
16
1+
17
1,
#940000
1#
1'
0"
0&
0!
0%
0)
1H
1G
0A
0B
0=
0;
0<
1/
1M
0E
1D
1@
1?
0>
0L
1F
1C
06
0+
1N
1I
07
19
0,
1.
08
0-
#945000
1!
1%
1)
1=
1;
1<
0/
1L
0@
0?
1>
0C
16
1+
17
1,
#950000
1"
1&
0!
0%
0)
1A
1B
0=
0;
0<
1/
1E
0D
0L
1@
1?
0>
1L
0F
1C
06
0+
0I
07
0,
18
1-
#955000
1!
1%
1)
1=
1;
1<
0/
0@
0?
1>
0C
16
1+
17
1,
