电子线路/电子线路实验/上机原文件/3.11/2/simulation/qsim/qjq.msim.vcd
$comment
	File created using the following command:
		vcd file qjq.msim.vcd -direction
$end
$date
	Tue Mar 11 16:14:53 2025
$end
$version
	ModelSim Version 10.1d
$end
$timescale
	1ps
$end
$scope module qjq_vlg_vec_tst $end
$var reg 1 ! A0 $end
$var reg 1 " A1 $end
$var reg 1 # A2 $end
$var reg 1 $ A3 $end
$var reg 1 % B0 $end
$var reg 1 & B1 $end
$var reg 1 ' B2 $end
$var reg 1 ( B3 $end
$var reg 1 ) Cin $end
$var wire 1 * Cout $end
$var wire 1 + Q0 $end
$var wire 1 , Q1 $end
$var wire 1 - Q2 $end
$var wire 1 . Q3 $end
$var wire 1 / sampler $end
$scope module i1 $end
$var wire 1 0 gnd $end
$var wire 1 1 vcc $end
$var wire 1 2 unknown $end
$var tri1 1 3 devclrn $end
$var tri1 1 4 devpor $end
$var tri1 1 5 devoe $end
$var wire 1 6 Q0~output_o $end
$var wire 1 7 Q1~output_o $end
$var wire 1 8 Q2~output_o $end
$var wire 1 9 Q3~output_o $end
$var wire 1 : Cout~output_o $end
$var wire 1 ; Cin~input_o $end
$var wire 1 < A0~input_o $end
$var wire 1 = B0~input_o $end
$var wire 1 > inst5~0_combout $end
$var wire 1 ? B1~input_o $end
$var wire 1 @ A1~input_o $end
$var wire 1 A inst00~0_combout $end
$var wire 1 B inst00~1_combout $end
$var wire 1 C inst6~combout $end
$var wire 1 D inst7~0_combout $end
$var wire 1 E B2~input_o $end
$var wire 1 F A2~input_o $end
$var wire 1 G inst10~0_combout $end
$var wire 1 H A3~input_o $end
$var wire 1 I B3~input_o $end
$var wire 1 J inst12~1_combout $end
$var wire 1 K inst12~0_combout $end
$var wire 1 L inst15~combout $end
$var wire 1 M inst17~0_combout $end
$upscope $end
$upscope $end
$enddefinitions $end
#0
$dumpvars
0!
0"
0#
0$
0%
0&
0'
0(
0)
0*
0+
0,
0-
0.
x/
00
11
x2
13
14
15
06
07
08
09
0:
0;
0<
0=
0>
0?
0@
0A
0B
0C
0D
0E
0F
0G
0H
0I
0J
0K
0L
0M
$end
#5000
1!
1%
1<
1=
0/
1B
1C
17
1,
#10000
1"
1&
0!
0%
1@
1?
0<
0=
1/
1D
0B
1G
0C
18
07
1-
0,
#15000
1!
1%
1<
1=
0/
1B
1C
17
1,
#20000
1#
1'
0"
0&
0!
0%
1F
1E
0@
0?
0<
0=
1/
1K
1J
0D
0B
0K
1L
0G
0C
19
08
07
1.
0-
0,
#25000
1!
1%
1<
1=
0/
1B
1C
17
1,
#30000
1"
1&
0!
0%
1@
1?
0<
0=
1/
1D
0B
1K
1G
0C
18
07
1-
0,
#35000
1!
1%
1<
1=
0/
1B
1C
17
1,
#40000
1$
1(
0#
0'
0"
0&
0!
0%
1H
1I
0F
0E
0@
0?
0<
0=
1/
0K
0J
0D
0B
1M
1:
1*
0L
0G
0C
09
08
07
0.
0-
0,
#45000
1!
1%
1<
1=
0/
1B
1C
17
1,
#50000
1"
1&
0!
0%
1@
1?
0<
0=
1/
1D
0B
1G
0C
18
07
1-
0,
#55000
1!
1%
1<
1=
0/
1B
1C
17
1,
#60000
1#
1'
0"
0&
0!
0%
1F
1E
0@
0?
0<
0=
1/
1K
1J
0D
0B
0K
1L
0G
0C
19
08
07
1.
0-
0,
#65000
1!
1%
1<
1=
0/
1B
1C
17
1,
#70000
1"
1&
0!
0%
1@
1?
0<
0=
1/
1D
0B
1K
1G
0C
18
07
1-
0,
#75000
1!
1%
1<
1=
0/
1B
1C
17
1,
#80000
0$
0(
0#
0'
0"
0&
0!
0%
0H
0I
0F
0E
0@
0?
0<
0=
1/
0K
0J
0D
0B
0M
0:
0*
0L
0G
0C
09
08
07
0.
0-
0,
#85000
1!
1%
1<
1=
0/
1B
1C
17
1,
#90000
1"
1&
0!
0%
1@
1?
0<
0=
1/
1D
0B
1G
0C
18
07
1-
0,
#95000
1!
1%
1<
1=
0/
1B
1C
17
1,
#100000
1#
1'
0"
0&
0!
0%
1F
1E
0@
0?
0<
0=
1/
1K
1J
0D
0B
0K
1L
0G
0C
19
08
07
1.
0-
0,
#105000
1!
1%
1<
1=
0/
1B
1C
17
1,
#110000
1"
1&
0!
0%
1@
1?
0<
0=
1/
1D
0B
1K
1G
0C
18
07
1-
0,
#115000
1!
1%
1<
1=
0/
1B
1C
17
1,
#120000
1$
1(
0#
0'
0"
0&
0!
0%
1H
1I
0F
0E
0@
0?
0<
0=
1/
0K
0J
0D
0B
1M
1:
1*
0L
0G
0C
09
08
07
0.
0-
0,
#125000
1!
1%
1<
1=
0/
1B
1C
17
1,
#130000
1"
1&
0!
0%
1@
1?
0<
0=
1/
1D
0B
1G
0C
18
07
1-
0,
#135000
1!
1%
1<
1=
0/
1B
1C
17
1,
#140000
1#
1'
0"
0&
0!
0%
1F
1E
0@
0?
0<
0=
1/
1K
1J
0D
0B
0K
1L
0G
0C
19
08
07
1.
0-
0,
#145000
1!
1%
1<
1=
0/
1B
1C
17
1,
#150000
1"
1&
0!
0%
1@
1?
0<
0=
1/
1D
0B
1K
1G
0C
18
07
1-
0,
#155000
1!
1%
1<
1=
0/
1B
1C
17
1,
#160000
0$
0(
0#
0'
0"
0&
0!
0%
0H
0I
0F
0E
0@
0?
0<
0=
1/
0K
0J
0D
0B
0M
0:
0*
0L
0G
0C
09
08
07
0.
0-
0,
#165000
1!
1%
1<
1=
0/
1B
1C
17
1,
#170000
1"
1&
0!
0%
1@
1?
0<
0=
1/
1D
0B
1G
0C
18
07
1-
0,
#175000
1!
1%
1<
1=
0/
1B
1C
17
1,
#180000
1#
1'
0"
0&
0!
0%
1F
1E
0@
0?
0<
0=
1/
1K
1J
0D
0B
0K
1L
0G
0C
19
08
07
1.
0-
0,
#185000
1!
1%
1<
1=
0/
1B
1C
17
1,
#190000
1"
1&
0!
0%
1@
1?
0<
0=
1/
1D
0B
1K
1G
0C
18
07
1-
0,
#195000
1!
1%
1<
1=
0/
1B
1C
17
1,
#200000
1$
1(
0#
0'
0"
0&
0!
0%
1H
1I
0F
0E
0@
0?
0<
0=
1/
0K
0J
0D
0B
1M
1:
1*
0L
0G
0C
09
08
07
0.
0-
0,
#205000
1!
1%
1<
1=
0/
1B
1C
17
1,
#210000
1"
1&
0!
0%
1@
1?
0<
0=
1/
1D
0B
1G
0C
18
07
1-
0,
#215000
1!
1%
1<
1=
0/
1B
1C
17
1,
#220000
1#
1'
0"
0&
0!
0%
1F
1E
0@
0?
0<
0=
1/
1K
1J
0D
0B
0K
1L
0G
0C
19
08
07
1.
0-
0,
#225000
1!
1%
1<
1=
0/
1B
1C
17
1,
#230000
1"
1&
0!
0%
1@
1?
0<
0=
1/
1D
0B
1K
1G
0C
18
07
1-
0,
#235000
1!
1%
1<
1=
0/
1B
1C
17
1,
#240000
0$
0(
0#
0'
0"
0&
0!
0%
0H
0I
0F
0E
0@
0?
0<
0=
1/
0K
0J
0D
0B
0M
0:
0*
0L
0G
0C
09
08
07
0.
0-
0,
#245000
1!
1%
1<
1=
0/
1B
1C
17
1,
#250000
1"
1&
0!
0%
1@
1?
0<
0=
1/
1D
0B
1G
0C
18
07
1-
0,
#255000
1!
1%
1<
1=
0/
1B
1C
17
1,
#260000
1#
1'
0"
0&
0!
0%
1F
1E
0@
0?
0<
0=
1/
1K
1J
0D
0B
0K
1L
0G
0C
19
08
07
1.
0-
0,
#265000
1!
1%
1<
1=
0/
1B
1C
17
1,
#270000
1"
1&
0!
0%
1@
1?
0<
0=
1/
1D
0B
1K
1G
0C
18
07
1-
0,
#275000
1!
1%
1<
1=
0/
1B
1C
17
1,
#280000
1$
1(
0#
0'
0"
0&
0!
0%
1H
1I
0F
0E
0@
0?
0<
0=
1/
0K
0J
0D
0B
1M
1:
1*
0L
0G
0C
09
08
07
0.
0-
0,
#285000
1!
1%
1<
1=
0/
1B
1C
17
1,
#290000
1"
1&
0!
0%
1@
1?
0<
0=
1/
1D
0B
1G
0C
18
07
1-
0,
#295000
1!
1%
1<
1=
0/
1B
1C
17
1,
#300000
1#
1'
0"
0&
0!
0%
1F
1E
0@
0?
0<
0=
1/
1K
1J
0D
0B
0K
1L
0G
0C
19
08
07
1.
0-
0,
#305000
1!
1%
1<
1=
0/
1B
1C
17
1,
#310000
1"
1&
0!
0%
1@
1?
0<
0=
1/
1D
0B
1K
1G
0C
18
07
1-
0,
#315000
1!
1%
1<
1=
0/
1B
1C
17
1,
#320000
0$
0(
0#
0'
0"
0&
0!
0%
0H
0I
0F
0E
0@
0?
0<
0=
1/
0K
0J
0D
0B
0M
0:
0*
0L
0G
0C
09
08
07
0.
0-
0,
#325000
1!
1%
1<
1=
0/
1B
1C
17
1,
#330000
1"
1&
0!
0%
1@
1?
0<
0=
1/
1D
0B
1G
0C
18
07
1-
0,
#335000
1!
1%
1<
1=
0/
1B
1C
17
1,
#340000
1#
1'
0"
0&
0!
0%
1F
1E
0@
0?
0<
0=
1/
1K
1J
0D
0B
0K
1L
0G
0C
19
08
07
1.
0-
0,
#345000
1!
1%
1<
1=
0/
1B
1C
17
1,
#350000
1"
1&
0!
0%
1@
1?
0<
0=
1/
1D
0B
1K
1G
0C
18
07
1-
0,
#355000
1!
1%
1<
1=
0/
1B
1C
17
1,
#360000
1$
1(
0#
0'
0"
0&
0!
0%
1H
1I
0F
0E
0@
0?
0<
0=
1/
0K
0J
0D
0B
1M
1:
1*
0L
0G
0C
09
08
07
0.
0-
0,
#365000
1!
1%
1<
1=
0/
1B
1C
17
1,
#370000
1"
1&
0!
0%
1@
1?
0<
0=
1/
1D
0B
1G
0C
18
07
1-
0,
#375000
1!
1%
1<
1=
0/
1B
1C
17
1,
#380000
1#
1'
0"
0&
0!
0%
1F
1E
0@
0?
0<
0=
1/
1K
1J
0D
0B
0K
1L
0G
0C
19
08
07
1.
0-
0,
#385000
1!
1%
1<
1=
0/
1B
1C
17
1,
#390000
1"
1&
0!
0%
1@
1?
0<
0=
1/
1D
0B
1K
1G
0C
18
07
1-
0,
#395000
1!
1%
1<
1=
0/
1B
1C
17
1,
#400000
0$
0(
0#
0'
0"
0&
0!
0%
0H
0I
0F
0E
0@
0?
0<
0=
1/
0K
0J
0D
0B
0M
0:
0*
0L
0G
0C
09
08
07
0.
0-
0,
#405000
1!
1%
1<
1=
0/
1B
1C
17
1,
#410000
1"
1&
0!
0%
1@
1?
0<
0=
1/
1D
0B
1G
0C
18
07
1-
0,
#415000
1!
1%
1<
1=
0/
1B
1C
17
1,
#420000
1#
1'
0"
0&
0!
0%
1F
1E
0@
0?
0<
0=
1/
1K
1J
0D
0B
0K
1L
0G
0C
19
08
07
1.
0-
0,
#425000
1!
1%
1<
1=
0/
1B
1C
17
1,
#430000
1"
1&
0!
0%
1@
1?
0<
0=
1/
1D
0B
1K
1G
0C
18
07
1-
0,
#435000
1!
1%
1<
1=
0/
1B
1C
17
1,
#440000
1$
1(
0#
0'
0"
0&
0!
0%
1H
1I
0F
0E
0@
0?
0<
0=
1/
0K
0J
0D
0B
1M
1:
1*
0L
0G
0C
09
08
07
0.
0-
0,
#445000
1!
1%
1<
1=
0/
1B
1C
17
1,
#450000
1"
1&
0!
0%
1@
1?
0<
0=
1/
1D
0B
1G
0C
18
07
1-
0,
#455000
1!
1%
1<
1=
0/
1B
1C
17
1,
#460000
1#
1'
0"
0&
0!
0%
1F
1E
0@
0?
0<
0=
1/
1K
1J
0D
0B
0K
1L
0G
0C
19
08
07
1.
0-
0,
#465000
1!
1%
1<
1=
0/
1B
1C
17
1,
#470000
1"
1&
0!
0%
1@
1?
0<
0=
1/
1D
0B
1K
1G
0C
18
07
1-
0,
#475000
1!
1%
1<
1=
0/
1B
1C
17
1,
#480000
0$
0(
0#
0'
0"
0&
0!
0%
0H
0I
0F
0E
0@
0?
0<
0=
1/
0K
0J
0D
0B
0M
0:
0*
0L
0G
0C
09
08
07
0.
0-
0,
#485000
1!
1%
1<
1=
0/
1B
1C
17
1,
#490000
1"
1&
0!
0%
1@
1?
0<
0=
1/
1D
0B
1G
0C
18
07
1-
0,
#495000
1!
1%
1<
1=
0/
1B
1C
17
1,
#500000
1#
1'
0"
0&
0!
0%
1F
1E
0@
0?
0<
0=
1/
1K
1J
0D
0B
0K
1L
0G
0C
19
08
07
1.
0-
0,
#505000
1!
1%
1<
1=
0/
1B
1C
17
1,
#510000
1"
1&
0!
0%
1@
1?
0<
0=
1/
1D
0B
1K
1G
0C
18
07
1-
0,
#515000
1!
1%
1<
1=
0/
1B
1C
17
1,
#520000
1$
1(
0#
0'
0"
0&
0!
0%
1H
1I
0F
0E
0@
0?
0<
0=
1/
0K
0J
0D
0B
1M
1:
1*
0L
0G
0C
09
08
07
0.
0-
0,
#525000
1!
1%
1<
1=
0/
1B
1C
17
1,
#530000
1"
1&
0!
0%
1@
1?
0<
0=
1/
1D
0B
1G
0C
18
07
1-
0,
#535000
1!
1%
1<
1=
0/
1B
1C
17
1,
#540000
1#
1'
0"
0&
0!
0%
1F
1E
0@
0?
0<
0=
1/
1K
1J
0D
0B
0K
1L
0G
0C
19
08
07
1.
0-
0,
#545000
1!
1%
1<
1=
0/
1B
1C
17
1,
#550000
1"
1&
0!
0%
1@
1?
0<
0=
1/
1D
0B
1K
1G
0C
18
07
1-
0,
#555000
1!
1%
1<
1=
0/
1B
1C
17
1,
#560000
0$
0(
0#
0'
0"
0&
0!
0%
0H
0I
0F
0E
0@
0?
0<
0=
1/
0K
0J
0D
0B
0M
0:
0*
0L
0G
0C
09
08
07
0.
0-
0,
#565000
1!
1%
1<
1=
0/
1B
1C
17
1,
#570000
1"
1&
0!
0%
1@
1?
0<
0=
1/
1D
0B
1G
0C
18
07
1-
0,
#575000
1!
1%
1<
1=
0/
1B
1C
17
1,
#580000
1#
1'
0"
0&
0!
0%
1F
1E
0@
0?
0<
0=
1/
1K
1J
0D
0B
0K
1L
0G
0C
19
08
07
1.
0-
0,
#585000
1!
1%
1<
1=
0/
1B
1C
17
1,
#590000
1"
1&
0!
0%
1@
1?
0<
0=
1/
1D
0B
1K
1G
0C
18
07
1-
0,
#595000
1!
1%
1<
1=
0/
1B
1C
17
1,
#600000
1$
1(
0#
0'
0"
0&
0!
0%
1H
1I
0F
0E
0@
0?
0<
0=
1/
0K
0J
0D
0B
1M
1:
1*
0L
0G
0C
09
08
07
0.
0-
0,
#605000
1!
1%
1<
1=
0/
1B
1C
17
1,
#610000
1"
1&
0!
0%
1@
1?
0<
0=
1/
1D
0B
1G
0C
18
07
1-
0,
#615000
1!
1%
1<
1=
0/
1B
1C
17
1,
#620000
1#
1'
0"
0&
0!
0%
1F
1E
0@
0?
0<
0=
1/
1K
1J
0D
0B
0K
1L
0G
0C
19
08
07
1.
0-
0,
#625000
1!
1%
1<
1=
0/
1B
1C
17
1,
#630000
1"
1&
0!
0%
1@
1?
0<
0=
1/
1D
0B
1K
1G
0C
18
07
1-
0,
#635000
1!
1%
1<
1=
0/
1B
1C
17
1,
#640000
0$
0(
0#
0'
0"
0&
0!
0%
0H
0I
0F
0E
0@
0?
0<
0=
1/
0K
0J
0D
0B
0M
0:
0*
0L
0G
0C
09
08
07
0.
0-
0,
#645000
1!
1%
1<
1=
0/
1B
1C
17
1,
#650000
1"
1&
0!
0%
1@
1?
0<
0=
1/
1D
0B
1G
0C
18
07
1-
0,
#655000
1!
1%
1<
1=
0/
1B
1C
17
1,
#660000
1#
1'
0"
0&
0!
0%
1F
1E
0@
0?
0<
0=
1/
1K
1J
0D
0B
0K
1L
0G
0C
19
08
07
1.
0-
0,
#665000
1!
1%
1<
1=
0/
1B
1C
17
1,
#670000
1"
1&
0!
0%
1@
1?
0<
0=
1/
1D
0B
1K
1G
0C
18
07
1-
0,
#675000
1!
1%
1<
1=
0/
1B
1C
17
1,
#680000
1$
1(
0#
0'
0"
0&
0!
0%
1H
1I
0F
0E
0@
0?
0<
0=
1/
0K
0J
0D
0B
1M
1:
1*
0L
0G
0C
09
08
07
0.
0-
0,
#685000
1!
1%
1<
1=
0/
1B
1C
17
1,
#690000
1"
1&
0!
0%
1@
1?
0<
0=
1/
1D
0B
1G
0C
18
07
1-
0,
#695000
1!
1%
1<
1=
0/
1B
1C
17
1,
#700000
1#
1'
0"
0&
0!
0%
1F
1E
0@
0?
0<
0=
1/
1K
1J
0D
0B
0K
1L
0G
0C
19
08
07
1.
0-
0,
#705000
1!
1%
1<
1=
0/
1B
1C
17
1,
#710000
1"
1&
0!
0%
1@
1?
0<
0=
1/
1D
0B
1K
1G
0C
18
07
1-
0,
#715000
1!
1%
1<
1=
0/
1B
1C
17
1,
#720000
0$
0(
0#
0'
0"
0&
0!
0%
0H
0I
0F
0E
0@
0?
0<
0=
1/
0K
0J
0D
0B
0M
0:
0*
0L
0G
0C
09
08
07
0.
0-
0,
#725000
1!
1%
1<
1=
0/
1B
1C
17
1,
#730000
1"
1&
0!
0%
1@
1?
0<
0=
1/
1D
0B
1G
0C
18
07
1-
0,
#735000
1!
1%
1<
1=
0/
1B
1C
17
1,
#740000
1#
1'
0"
0&
0!
0%
1F
1E
0@
0?
0<
0=
1/
1K
1J
0D
0B
0K
1L
0G
0C
19
08
07
1.
0-
0,
#745000
1!
1%
1<
1=
0/
1B
1C
17
1,
#750000
1"
1&
0!
0%
1@
1?
0<
0=
1/
1D
0B
1K
1G
0C
18
07
1-
0,
#755000
1!
1%
1<
1=
0/
1B
1C
17
1,
#760000
1$
1(
0#
0'
0"
0&
0!
0%
1H
1I
0F
0E
0@
0?
0<
0=
1/
0K
0J
0D
0B
1M
1:
1*
0L
0G
0C
09
08
07
0.
0-
0,
#765000
1!
1%
1<
1=
0/
1B
1C
17
1,
#770000
1"
1&
0!
0%
1@
1?
0<
0=
1/
1D
0B
1G
0C
18
07
1-
0,
#775000
1!
1%
1<
1=
0/
1B
1C
17
1,
#780000
1#
1'
0"
0&
0!
0%
1F
1E
0@
0?
0<
0=
1/
1K
1J
0D
0B
0K
1L
0G
0C
19
08
07
1.
0-
0,
#785000
1!
1%
1<
1=
0/
1B
1C
17
1,
#790000
1"
1&
0!
0%
1@
1?
0<
0=
1/
1D
0B
1K
1G
0C
18
07
1-
0,
#795000
1!
1%
1<
1=
0/
1B
1C
17
1,
#800000
0$
0(
0#
0'
0"
0&
0!
0%
0H
0I
0F
0E
0@
0?
0<
0=
1/
0K
0J
0D
0B
0M
0:
0*
0L
0G
0C
09
08
07
0.
0-
0,
#805000
1!
1%
1<
1=
0/
1B
1C
17
1,
#810000
1"
1&
0!
0%
1@
1?
0<
0=
1/
1D
0B
1G
0C
18
07
1-
0,
#815000
1!
1%
1<
1=
0/
1B
1C
17
1,
#820000
1#
1'
0"
0&
0!
0%
1F
1E
0@
0?
0<
0=
1/
1K
1J
0D
0B
0K
1L
0G
0C
19
08
07
1.
0-
0,
#825000
1!
1%
1<
1=
0/
1B
1C
17
1,
#830000
1"
1&
0!
0%
1@
1?
0<
0=
1/
1D
0B
1K
1G
0C
18
07
1-
0,
#835000
1!
1%
1<
1=
0/
1B
1C
17
1,
#840000
1$
1(
0#
0'
0"
0&
0!
0%
1H
1I
0F
0E
0@
0?
0<
0=
1/
0K
0J
0D
0B
1M
1:
1*
0L
0G
0C
09
08
07
0.
0-
0,
#845000
1!
1%
1<
1=
0/
1B
1C
17
1,
#850000
1"
1&
0!
0%
1@
1?
0<
0=
1/
1D
0B
1G
0C
18
07
1-
0,
#855000
1!
1%
1<
1=
0/
1B
1C
17
1,
#860000
1#
1'
0"
0&
0!
0%
1F
1E
0@
0?
0<
0=
1/
1K
1J
0D
0B
0K
1L
0G
0C
19
08
07
1.
0-
0,
#865000
1!
1%
1<
1=
0/
1B
1C
17
1,
#870000
1"
1&
0!
0%
1@
1?
0<
0=
1/
1D
0B
1K
1G
0C
18
07
1-
0,
#875000
1!
1%
1<
1=
0/
1B
1C
17
1,
#880000
0$
0(
0#
0'
0"
0&
0!
0%
0H
0I
0F
0E
0@
0?
0<
0=
1/
0K
0J
0D
0B
0M
0:
0*
0L
0G
0C
09
08
07
0.
0-
0,
#885000
1!
1%
1<
1=
0/
1B
1C
17
1,
#890000
1"
1&
0!
0%
1@
1?
0<
0=
1/
1D
0B
1G
0C
18
07
1-
0,
#895000
1!
1%
1<
1=
0/
1B
1C
17
1,
#900000
1#
1'
0"
0&
0!
0%
1F
1E
0@
0?
0<
0=
1/
1K
1J
0D
0B
0K
1L
0G
0C
19
08
07
1.
0-
0,
#905000
1!
1%
1<
1=
0/
1B
1C
17
1,
#910000
1"
1&
0!
0%
1@
1?
0<
0=
1/
1D
0B
1K
1G
0C
18
07
1-
0,
#915000
1!
1%
1<
1=
0/
1B
1C
17
1,
#920000
1$
1(
0#
0'
0"
0&
0!
0%
1H
1I
0F
0E
0@
0?
0<
0=
1/
0K
0J
0D
0B
1M
1:
1*
0L
0G
0C
09
08
07
0.
0-
0,
#925000
1!
1%
1<
1=
0/
1B
1C
17
1,
#930000
1"
1&
0!
0%
1@
1?
0<
0=
1/
1D
0B
1G
0C
18
07
1-
0,
#935000
1!
1%
1<
1=
0/
1B
1C
17
1,
#940000
1#
1'
0"
0&
0!
0%
1F
1E
0@
0?
0<
0=
1/
1K
1J
0D
0B
0K
1L
0G
0C
19
08
07
1.
0-
0,
#945000
1!
1%
1<
1=
0/
1B
1C
17
1,
#950000
1"
1&
0!
0%
1@
1?
0<
0=
1/
1D
0B
1K
1G
0C
18
07
1-
0,
#955000
1!
1%
1<
1=
0/
1B
1C
17
1,
#960000
0$
0(
0#
0'
0"
0&
0!
0%
0H
0I
0F
0E
0@
0?
0<
0=
1/
0K
0J
0D
0B
0M
0:
0*
0L
0G
0C
09
08
07
0.
0-
0,
#965000
1!
1%
1<
1=
0/
1B
1C
17
1,
#970000
1"
1&
0!
0%
1@
1?
0<
0=
1/
1D
0B
1G
0C
18
07
1-
0,
#975000
1!
1%
1<
1=
0/
1B
1C
17
1,
#980000
1#
1'
0"
0&
0!
0%
1F
1E
0@
0?
0<
0=
1/
1K
1J
0D
0B
0K
1L
0G
0C
19
08
07
1.
0-
0,
#985000
1!
1%
1<
1=
0/
1B
1C
17
1,
#990000
1"
1&
0!
0%
1@
1?
0<
0=
1/
1D
0B
1K
1G
0C
18
07
1-
0,
#995000
1!
1%
1<
1=
0/
1B
1C
17
1,
