电子线路/电子线路实验/上机原文件/3.18/TONG/simulation/qsim/tong.msim.vcd
$comment
	File created using the following command:
		vcd file tong.msim.vcd -direction
$end
$date
	Thu Mar 20 20:15:54 2025
$end
$version
	ModelSim Version 10.1d
$end
$timescale
	1ps
$end
$scope module tong_vlg_vec_tst $end
$var reg 1 ! CLK $end
$var reg 1 " CLR $end
$var wire 1 # Q1 $end
$var wire 1 $ Q2 $end
$var wire 1 % Q3 $end
$var wire 1 & Q4 $end
$var wire 1 ' Z $end
$var wire 1 ( sampler $end
$scope module i1 $end
$var wire 1 ) gnd $end
$var wire 1 * vcc $end
$var wire 1 + unknown $end
$var tri1 1 , devclrn $end
$var tri1 1 - devpor $end
$var tri1 1 . devoe $end
$var wire 1 / Z~output_o $end
$var wire 1 0 Q4~output_o $end
$var wire 1 1 Q3~output_o $end
$var wire 1 2 Q2~output_o $end
$var wire 1 3 Q1~output_o $end
$var wire 1 4 CLK~input_o $end
$var wire 1 5 CLK~inputclkctrl_outclk $end
$var wire 1 6 inst~0_combout $end
$var wire 1 7 CLR~input_o $end
$var wire 1 8 CLR~inputclkctrl_outclk $end
$var wire 1 9 inst~q $end
$var wire 1 : inst2~0_combout $end
$var wire 1 ; inst2~q $end
$var wire 1 < inst3~0_combout $end
$var wire 1 = inst3~q $end
$var wire 1 > inst4~0_combout $end
$var wire 1 ? inst4~q $end
$var wire 1 @ inst6~combout $end
$upscope $end
$upscope $end
$enddefinitions $end
#0
$dumpvars
0!
0"
x#
x$
x%
x&
x'
x(
0)
1*
x+
1,
1-
1.
x/
x0
x1
x2
x3
04
x5
16
07
x8
09
x:
0;
x<
0=
x>
0?
x@
$end
#378
08
05
#446
0>
#457
0<
#459
0:
#551
0@
#2995
03
0#
#3093
00
0&
#3274
01
0%
#3570
0/
0'
#3879
02
0$
#20000
1!
0(
#20527
14
#20917
15
#40000
0!
1(
#40701
04
#41079
05
#60000
1!
0(
#60527
14
#60917
15
#80000
0!
1(
#80701
04
#81079
05
#100000
1!
0(
#100527
14
#100917
15
#120000
1"
0!
1(
#120527
17
#120701
04
#120917
18
#121079
05
#140000
1!
0(
#140527
14
#140917
15
#142554
19
#142923
06
#142945
1:
#145627
13
1#
#160000
0!
1(
#160701
04
#161079
05
#180000
1!
0(
#180527
14
#180917
15
#182554
09
1;
#182907
16
#185549
03
0#
#186458
12
1$
#200000
0!
1(
#200701
04
#201079
05
#220000
1!
0(
#220527
14
#220917
15
#222554
19
#222923
06
#222935
0:
#222943
1<
#225627
13
1#
#240000
0!
1(
#240701
04
#241079
05
#260000
1!
0(
#260527
14
#260917
15
#262554
09
0;
1=
#262907
16
#265549
03
0#
#265917
11
1%
#266433
02
0$
#280000
0!
1(
#280701
04
#281079
05
#300000
1!
0(
#300527
14
#300917
15
#302554
19
#302923
06
#302945
1:
#305627
13
1#
#320000
0!
1(
#320701
04
#321079
05
#340000
1!
0(
#340527
14
#340917
15
#342554
09
1;
#342907
16
#345549
03
0#
#346458
12
1$
#360000
0!
1(
#360701
04
#361079
05
#380000
1!
0(
#380527
14
#380917
15
#382554
19
#382923
06
#382933
0<
#382935
0:
#383173
1>
#385627
13
1#
#400000
0!
1(
#400701
04
#401079
05
#420000
1!
0(
#420527
14
#420917
15
#422554
09
0;
0=
1?
#422907
16
#425549
03
0#
#425730
10
1&
#425828
01
0%
#426433
02
0$
#440000
0!
1(
#440701
04
#441079
05
#460000
1!
0(
#460527
14
#460917
15
#462554
19
#462923
06
#462945
1:
#465627
13
1#
#480000
0!
1(
#480701
04
#481079
05
#500000
1!
0(
#500527
14
#500917
15
#502554
09
1;
#502907
16
#505549
03
0#
#506458
12
1$
#520000
0!
1(
#520701
04
#521079
05
#540000
1!
0(
#540527
14
#540917
15
#542554
19
#542923
06
#542935
0:
#542943
1<
#545627
13
1#
#560000
0!
1(
#560701
04
#561079
05
#580000
1!
0(
#580527
14
#580917
15
#582554
09
0;
1=
#582907
16
#585549
03
0#
#585917
11
1%
#586433
02
0$
#600000
0!
1(
#600701
04
#601079
05
#620000
1!
0(
#620527
14
#620917
15
#622554
19
#622923
06
#622945
1:
#625627
13
1#
#640000
0!
1(
#640701
04
#641079
05
#660000
1!
0(
#660527
14
#660917
15
#662554
09
1;
#662907
16
#662927
0>
#663258
1>
#665549
03
0#
#666458
12
1$
#680000
0!
1(
#680701
04
#681079
05
#700000
1!
0(
#700527
14
#700917
15
#702554
19
#702923
06
#702933
0<
#702935
0:
#703147
1@
#703177
0>
#705627
13
1#
#706286
1/
1'
#720000
0!
1(
#720701
04
#721079
05
#740000
1!
0(
#740527
14
#740917
15
#742554
09
0;
0=
0?
#742907
16
#743105
0@
#745549
03
0#
#745647
00
0&
#745828
01
0%
#746124
0/
0'
#746433
02
0$
#760000
0!
1(
#760701
04
#761079
05
#780000
1!
0(
#780527
14
#780917
15
#782554
19
#782923
06
#782945
1:
#785627
13
1#
#800000
0!
1(
#800701
04
#801079
05
#820000
1!
0(
#820527
14
#820917
15
#822554
09
1;
#822907
16
#825549
03
0#
#826458
12
1$
#840000
0!
1(
#840701
04
#841079
05
#860000
1!
0(
#860527
14
#860917
15
#862554
19
#862923
06
#862935
0:
#862943
1<
#865627
13
1#
#880000
0!
1(
#880701
04
#881079
05
#900000
1!
0(
#900527
14
#900917
15
#902554
09
0;
1=
#902907
16
#905549
03
0#
#905917
11
1%
#906433
02
0$
#920000
0!
1(
#920701
04
#921079
05
#940000
1!
0(
#940527
14
#940917
15
#942554
19
#942923
06
#942945
1:
#945627
13
1#
#960000
0!
1(
#960701
04
#961079
05
#980000
1!
0(
#980527
14
#980917
15
#982554
09
1;
#982907
16
#985549
03
0#
#986458
12
1$
