电子线路/电子线路实验/上机原文件/3.11/14/simulation/qsim/xuan14.msim.vcd
$comment
	File created using the following command:
		vcd file xuan14.msim.vcd -direction
$end
$date
	Tue Mar 11 17:12:49 2025
$end
$version
	ModelSim Version 10.1d
$end
$timescale
	1ps
$end
$scope module xuan14_vlg_vec_tst $end
$var reg 1 ! c0 $end
$var reg 1 " c1 $end
$var reg 1 # c2 $end
$var reg 1 $ c3 $end
$var reg 1 % s0 $end
$var reg 1 & s1 $end
$var wire 1 ' y $end
$var wire 1 ( sampler $end
$scope module i1 $end
$var wire 1 ) gnd $end
$var wire 1 * vcc $end
$var wire 1 + unknown $end
$var tri1 1 , devclrn $end
$var tri1 1 - devpor $end
$var tri1 1 . devoe $end
$var wire 1 / y~output_o $end
$var wire 1 0 c3~input_o $end
$var wire 1 1 s0~input_o $end
$var wire 1 2 s1~input_o $end
$var wire 1 3 c1~input_o $end
$var wire 1 4 c0~input_o $end
$var wire 1 5 inst|9~0_combout $end
$var wire 1 6 c2~input_o $end
$var wire 1 7 inst|9~1_combout $end
$upscope $end
$upscope $end
$enddefinitions $end
#0
$dumpvars
0!
0"
0#
0$
0%
0&
0'
x(
0)
1*
x+
1,
1-
1.
0/
00
01
02
03
04
05
06
07
$end
#5000
1!
14
0(
15
17
1/
1'
#10000
1"
0!
13
04
1(
05
07
0/
0'
#15000
1!
14
0(
15
17
1/
1'
#20000
1#
0"
0!
16
03
04
1(
05
07
0/
0'
#25000
1!
14
0(
15
17
1/
1'
#30000
1"
0!
13
04
1(
05
07
0/
0'
#35000
1!
14
0(
15
17
1/
1'
#40000
1$
0#
0"
0!
10
06
03
04
1(
05
07
0/
0'
#45000
1!
14
0(
15
17
1/
1'
#50000
1"
0!
13
04
1(
05
07
0/
0'
#55000
1!
14
0(
15
17
1/
1'
#60000
1#
0"
0!
16
03
04
1(
05
07
0/
0'
#65000
1!
14
0(
15
17
1/
1'
#70000
1"
0!
13
04
1(
05
07
0/
0'
#75000
1!
14
0(
15
17
1/
1'
#80000
1%
0$
0#
0"
0!
11
00
06
03
04
1(
05
07
0/
0'
#85000
1!
14
0(
#90000
1"
0!
13
04
1(
15
17
1/
1'
#95000
1!
14
0(
#100000
1#
0"
0!
16
03
04
1(
05
07
0/
0'
#105000
1!
14
0(
#110000
1"
0!
13
04
1(
15
17
1/
1'
#115000
1!
14
0(
#120000
1$
0#
0"
0!
10
06
03
04
1(
05
07
0/
0'
#125000
1!
14
0(
#130000
1"
0!
13
04
1(
15
17
1/
1'
#135000
1!
14
0(
#140000
1#
0"
0!
16
03
04
1(
05
07
0/
0'
#145000
1!
14
0(
#150000
1"
0!
13
04
1(
15
17
1/
1'
#155000
1!
14
0(
#160000
1&
0%
0$
0#
0"
0!
12
01
00
06
03
04
1(
05
07
0/
0'
#165000
1!
14
0(
#170000
1"
0!
13
04
1(
#175000
1!
14
0(
#180000
1#
0"
0!
16
03
04
1(
17
1/
1'
#185000
1!
14
0(
#190000
1"
0!
13
04
1(
#195000
1!
14
0(
#200000
1$
0#
0"
0!
10
06
03
04
1(
07
0/
0'
#205000
1!
14
0(
#210000
1"
0!
13
04
1(
#215000
1!
14
0(
#220000
1#
0"
0!
16
03
04
1(
17
1/
1'
#225000
1!
14
0(
#230000
1"
0!
13
04
1(
#235000
1!
14
0(
#240000
1%
0$
0#
0"
0!
11
00
06
03
04
1(
15
07
0/
0'
#245000
1!
14
0(
#250000
1"
0!
13
04
1(
#255000
1!
14
0(
#260000
1#
0"
0!
16
03
04
1(
#265000
1!
14
0(
#270000
1"
0!
13
04
1(
#275000
1!
14
0(
#280000
1$
0#
0"
0!
10
06
03
04
1(
17
1/
1'
#285000
1!
14
0(
#290000
1"
0!
13
04
1(
#295000
1!
14
0(
#300000
1#
0"
0!
16
03
04
1(
#305000
1!
14
0(
#310000
1"
0!
13
04
1(
#315000
1!
14
0(
#320000
0&
0%
0$
0#
0"
0!
02
01
00
06
03
04
1(
05
07
0/
0'
#325000
1!
14
0(
15
17
1/
1'
#330000
1"
0!
13
04
1(
05
07
0/
0'
#335000
1!
14
0(
15
17
1/
1'
#340000
1#
0"
0!
16
03
04
1(
05
07
0/
0'
#345000
1!
14
0(
15
17
1/
1'
#350000
1"
0!
13
04
1(
05
07
0/
0'
#355000
1!
14
0(
15
17
1/
1'
#360000
1$
0#
0"
0!
10
06
03
04
1(
05
07
0/
0'
#365000
1!
14
0(
15
17
1/
1'
#370000
1"
0!
13
04
1(
05
07
0/
0'
#375000
1!
14
0(
15
17
1/
1'
#380000
1#
0"
0!
16
03
04
1(
05
07
0/
0'
#385000
1!
14
0(
15
17
1/
1'
#390000
1"
0!
13
04
1(
05
07
0/
0'
#395000
1!
14
0(
15
17
1/
1'
#400000
1%
0$
0#
0"
0!
11
00
06
03
04
1(
05
07
0/
0'
#405000
1!
14
0(
#410000
1"
0!
13
04
1(
15
17
1/
1'
#415000
1!
14
0(
#420000
1#
0"
0!
16
03
04
1(
05
07
0/
0'
#425000
1!
14
0(
#430000
1"
0!
13
04
1(
15
17
1/
1'
#435000
1!
14
0(
#440000
1$
0#
0"
0!
10
06
03
04
1(
05
07
0/
0'
#445000
1!
14
0(
#450000
1"
0!
13
04
1(
15
17
1/
1'
#455000
1!
14
0(
#460000
1#
0"
0!
16
03
04
1(
05
07
0/
0'
#465000
1!
14
0(
#470000
1"
0!
13
04
1(
15
17
1/
1'
#475000
1!
14
0(
#480000
1&
0%
0$
0#
0"
0!
12
01
00
06
03
04
1(
05
07
0/
0'
#485000
1!
14
0(
#490000
1"
0!
13
04
1(
#495000
1!
14
0(
#500000
1#
0"
0!
16
03
04
1(
17
1/
1'
#505000
1!
14
0(
#510000
1"
0!
13
04
1(
#515000
1!
14
0(
#520000
1$
0#
0"
0!
10
06
03
04
1(
07
0/
0'
#525000
1!
14
0(
#530000
1"
0!
13
04
1(
#535000
1!
14
0(
#540000
1#
0"
0!
16
03
04
1(
17
1/
1'
#545000
1!
14
0(
#550000
1"
0!
13
04
1(
#555000
1!
14
0(
#560000
1%
0$
0#
0"
0!
11
00
06
03
04
1(
15
07
0/
0'
#565000
1!
14
0(
#570000
1"
0!
13
04
1(
#575000
1!
14
0(
#580000
1#
0"
0!
16
03
04
1(
#585000
1!
14
0(
#590000
1"
0!
13
04
1(
#595000
1!
14
0(
#600000
1$
0#
0"
0!
10
06
03
04
1(
17
1/
1'
#605000
1!
14
0(
#610000
1"
0!
13
04
1(
#615000
1!
14
0(
#620000
1#
0"
0!
16
03
04
1(
#625000
1!
14
0(
#630000
1"
0!
13
04
1(
#635000
1!
14
0(
#640000
0&
0%
0$
0#
0"
0!
02
01
00
06
03
04
1(
05
07
0/
0'
#645000
1!
14
0(
15
17
1/
1'
#650000
1"
0!
13
04
1(
05
07
0/
0'
#655000
1!
14
0(
15
17
1/
1'
#660000
1#
0"
0!
16
03
04
1(
05
07
0/
0'
#665000
1!
14
0(
15
17
1/
1'
#670000
1"
0!
13
04
1(
05
07
0/
0'
#675000
1!
14
0(
15
17
1/
1'
#680000
1$
0#
0"
0!
10
06
03
04
1(
05
07
0/
0'
#685000
1!
14
0(
15
17
1/
1'
#690000
1"
0!
13
04
1(
05
07
0/
0'
#695000
1!
14
0(
15
17
1/
1'
#700000
1#
0"
0!
16
03
04
1(
05
07
0/
0'
#705000
1!
14
0(
15
17
1/
1'
#710000
1"
0!
13
04
1(
05
07
0/
0'
#715000
1!
14
0(
15
17
1/
1'
#720000
1%
0$
0#
0"
0!
11
00
06
03
04
1(
05
07
0/
0'
#725000
1!
14
0(
#730000
1"
0!
13
04
1(
15
17
1/
1'
#735000
1!
14
0(
#740000
1#
0"
0!
16
03
04
1(
05
07
0/
0'
#745000
1!
14
0(
#750000
1"
0!
13
04
1(
15
17
1/
1'
#755000
1!
14
0(
#760000
1$
0#
0"
0!
10
06
03
04
1(
05
07
0/
0'
#765000
1!
14
0(
#770000
1"
0!
13
04
1(
15
17
1/
1'
#775000
1!
14
0(
#780000
1#
0"
0!
16
03
04
1(
05
07
0/
0'
#785000
1!
14
0(
#790000
1"
0!
13
04
1(
15
17
1/
1'
#795000
1!
14
0(
#800000
1&
0%
0$
0#
0"
0!
12
01
00
06
03
04
1(
05
07
0/
0'
#805000
1!
14
0(
#810000
1"
0!
13
04
1(
#815000
1!
14
0(
#820000
1#
0"
0!
16
03
04
1(
17
1/
1'
#825000
1!
14
0(
#830000
1"
0!
13
04
1(
#835000
1!
14
0(
#840000
1$
0#
0"
0!
10
06
03
04
1(
07
0/
0'
#845000
1!
14
0(
#850000
1"
0!
13
04
1(
#855000
1!
14
0(
#860000
1#
0"
0!
16
03
04
1(
17
1/
1'
#865000
1!
14
0(
#870000
1"
0!
13
04
1(
#875000
1!
14
0(
#880000
1%
0$
0#
0"
0!
11
00
06
03
04
1(
15
07
0/
0'
#885000
1!
14
0(
#890000
1"
0!
13
04
1(
#895000
1!
14
0(
#900000
1#
0"
0!
16
03
04
1(
#905000
1!
14
0(
#910000
1"
0!
13
04
1(
#915000
1!
14
0(
#920000
1$
0#
0"
0!
10
06
03
04
1(
17
1/
1'
#925000
1!
14
0(
#930000
1"
0!
13
04
1(
#935000
1!
14
0(
#940000
1#
0"
0!
16
03
04
1(
#945000
1!
14
0(
#950000
1"
0!
13
04
1(
#955000
1!
14
0(
#960000
0&
0%
0$
0#
0"
0!
02
01
00
06
03
04
1(
05
07
0/
0'
#965000
1!
14
0(
15
17
1/
1'
#970000
1"
0!
13
04
1(
05
07
0/
0'
#975000
1!
14
0(
15
17
1/
1'
#980000
1#
0"
0!
16
03
04
1(
05
07
0/
0'
#985000
1!
14
0(
15
17
1/
1'
#990000
1"
0!
13
04
1(
05
07
0/
0'
#995000
1!
14
0(
15
17
1/
1'
