电子线路/电子线路实验/上机原文件/3.18/YI/simulation/qsim/yi.msim.vcd
$comment
	File created using the following command:
		vcd file yi.msim.vcd -direction
$end
$date
	Thu Mar 20 19:27:59 2025
$end
$version
	ModelSim Version 10.1d
$end
$timescale
	1ps
$end
$scope module yi_vlg_vec_tst $end
$var reg 1 ! CLK $end
$var reg 1 " CLR $end
$var wire 1 # Q0 $end
$var wire 1 $ Q1 $end
$var wire 1 % Q2 $end
$var wire 1 & Q3 $end
$var wire 1 ' sampler $end
$scope module i1 $end
$var wire 1 ( gnd $end
$var wire 1 ) vcc $end
$var wire 1 * unknown $end
$var tri1 1 + devclrn $end
$var tri1 1 , devpor $end
$var tri1 1 - devoe $end
$var wire 1 . Q0~output_o $end
$var wire 1 / Q1~output_o $end
$var wire 1 0 Q2~output_o $end
$var wire 1 1 Q3~output_o $end
$var wire 1 2 CLK~input_o $end
$var wire 1 3 inst~0_combout $end
$var wire 1 4 CLR~input_o $end
$var wire 1 5 CLR~inputclkctrl_outclk $end
$var wire 1 6 inst~q $end
$var wire 1 7 inst1~0_combout $end
$var wire 1 8 inst1~feeder_combout $end
$var wire 1 9 inst1~q $end
$var wire 1 : inst2~0_combout $end
$var wire 1 ; inst2~q $end
$var wire 1 < inst3~0_combout $end
$var wire 1 = inst3~q $end
$upscope $end
$upscope $end
$enddefinitions $end
#0
$dumpvars
0!
0"
x#
x$
x%
x&
x'
0(
1)
x*
1+
1,
1-
x.
x/
x0
x1
02
x3
04
x5
06
x7
x8
09
x:
0;
1<
0=
$end
#378
05
#554
17
#683
1:
#994
18
#1253
13
#3064
01
0&
#3103
00
0%
#3274
0/
0$
#3897
0.
0#
#20000
1!
0'
#20507
12
#40000
0!
1'
#40681
02
#60000
1!
0'
#60507
12
#80000
0!
1'
#80681
02
#100000
1!
0'
#100507
12
#120000
0!
1'
#120681
02
#140000
1!
0'
#140507
12
#160000
1"
0!
1'
#160527
14
#160681
02
#160917
15
#180000
1!
0'
#180507
12
#182359
16
#183565
03
#186281
1.
1#
#200000
0!
1'
#200681
02
#220000
1!
0'
#220507
12
#222359
06
#223410
19
#223612
13
#223894
07
#224336
08
#226256
0.
0#
#226765
1/
1$
#240000
0!
1'
#240681
02
#260000
1!
0'
#260507
12
#262359
16
#263565
03
#266281
1.
1#
#280000
0!
1'
#280681
02
#300000
1!
0'
#300507
12
#302359
06
#303410
09
#303612
13
#303964
17
#304404
18
#304634
1;
#305266
0:
#306256
0.
0#
#306684
0/
0$
#307816
10
1%
#320000
0!
1'
#320681
02
#340000
1!
0'
#340507
12
#342359
16
#343565
03
#346281
1.
1#
#360000
0!
1'
#360681
02
#380000
1!
0'
#380507
12
#382359
06
#383410
19
#383612
13
#383894
07
#384336
08
#386256
0.
0#
#386765
1/
1$
#400000
0!
1'
#400681
02
#420000
1!
0'
#420507
12
#422359
16
#423565
03
#426281
1.
1#
#440000
0!
1'
#440681
02
#460000
1!
0'
#460507
12
#462359
06
#463410
09
#463612
13
#463964
17
#464404
18
#464634
0;
#465317
1:
#465657
1=
#466026
0<
#466256
0.
0#
#466684
0/
0$
#467737
00
0%
#468803
11
1&
#480000
0!
1'
#480681
02
#500000
1!
0'
#500507
12
#502359
16
#503565
03
#506281
1.
1#
#520000
0!
1'
#520681
02
#540000
1!
0'
#540507
12
#542359
06
#543410
19
#543612
13
#543894
07
#544336
08
#546256
0.
0#
#546765
1/
1$
#560000
0!
1'
#560681
02
#580000
1!
0'
#580507
12
#582359
16
#583565
03
#586281
1.
1#
#600000
0!
1'
#600681
02
#620000
1!
0'
#620507
12
#622359
06
#623410
09
#623612
13
#623964
17
#624404
18
#624634
1;
#625266
0:
#626256
0.
0#
#626684
0/
0$
#627816
10
1%
#640000
0!
1'
#640681
02
#660000
1!
0'
#660507
12
#662359
16
#663565
03
#666281
1.
1#
#680000
0!
1'
#680681
02
#700000
1!
0'
#700507
12
#702359
06
#703410
19
#703612
13
#703894
07
#704336
08
#706256
0.
0#
#706765
1/
1$
#720000
0!
1'
#720681
02
#740000
1!
0'
#740507
12
#742359
16
#743565
03
#746281
1.
1#
#760000
0!
1'
#760681
02
#780000
1!
0'
#780507
12
#782359
06
#783410
09
#783612
13
#783964
17
#784404
18
#784634
0;
#785317
1:
#785657
0=
#786010
1<
#786256
0.
0#
#786684
0/
0$
#787737
00
0%
#788721
01
0&
#800000
0!
1'
#800681
02
#820000
1!
0'
#820507
12
#822359
16
#823565
03
#826281
1.
1#
#840000
0!
1'
#840681
02
#860000
1!
0'
#860507
12
#862359
06
#863410
19
#863612
13
#863894
07
#864336
08
#866256
0.
0#
#866765
1/
1$
#880000
0!
1'
#880681
02
#900000
1!
0'
#900507
12
#902359
16
#903565
03
#906281
1.
1#
#920000
0!
1'
#920681
02
#940000
1!
0'
#940507
12
#942359
06
#943410
09
#943612
13
#943964
17
#944404
18
#944634
1;
#945266
0:
#946256
0.
0#
#946684
0/
0$
#947816
10
1%
#960000
0!
1'
#960681
02
#980000
1!
0'
#980507
12
#982359
16
#983565
03
#986281
1.
1#
