电子线路/电子线路实验/上机原文件/3.18/JK/simulation/qsim/Jkcfq.msim.vcd
$comment
	File created using the following command:
		vcd file Jkcfq.msim.vcd -direction
$end
$date
	Thu Mar 20 19:27:01 2025
$end
$version
	ModelSim Version 10.1d
$end
$timescale
	1ps
$end
$scope module Jkcfq_vlg_vec_tst $end
$var reg 1 ! clk $end
$var reg 1 " CLR $end
$var reg 1 # J $end
$var reg 1 $ K $end
$var reg 1 % PRN $end
$var wire 1 & Q $end
$var wire 1 ' sampler $end
$scope module i1 $end
$var wire 1 ( gnd $end
$var wire 1 ) vcc $end
$var wire 1 * unknown $end
$var tri1 1 + devclrn $end
$var tri1 1 , devpor $end
$var tri1 1 - devoe $end
$var wire 1 . Q~output_o $end
$var wire 1 / PRN~input_o $end
$var wire 1 0 CLR~input_o $end
$var wire 1 1 inst~1_combout $end
$var wire 1 2 clk~input_o $end
$var wire 1 3 K~input_o $end
$var wire 1 4 J~input_o $end
$var wire 1 5 inst~3_combout $end
$var wire 1 6 inst~0_combout $end
$var wire 1 7 inst~_emulated_q $end
$var wire 1 8 inst~2_combout $end
$upscope $end
$upscope $end
$enddefinitions $end
#0
$dumpvars
0!
0"
0#
0$
1%
x&
x'
0(
1)
x*
1+
1,
1-
x.
1/
00
x1
02
03
04
x5
x6
07
x8
$end
#3564
08
#3721
16
#3723
01
#4358
05
#6600
0.
0&
#20000
1!
0'
#20517
12
#40000
1"
1#
0!
1'
#40507
14
10
#40691
02
#43985
06
#44017
15
#60000
1!
0'
#60517
12
#62372
17
#62719
18
#65875
1.
1&
#80000
1$
0#
0!
1'
#80517
13
#80681
04
#80691
02
#84102
05
#100000
1!
0'
#100517
12
#102372
07
#102776
08
#105812
0.
0&
#120000
1#
0!
1'
#120507
14
#120691
02
#124017
15
#140000
1!
0'
#140517
12
#142372
17
#142719
18
#143036
05
#145875
1.
1&
#160000
0$
0#
0!
1'
#160681
04
#160691
02
03
#164516
15
#180000
1!
0'
#180517
12
#200000
1#
0!
1'
#200507
14
#200691
02
#220000
1!
0'
#220517
12
#240000
1$
0#
0!
1'
#240517
13
#240681
04
#240691
02
#244102
05
#260000
1!
0'
#260517
12
#262372
07
#262776
08
#265812
0.
0&
#280000
1#
0!
1'
#280507
14
#280691
02
#284017
15
#300000
1!
0'
#300517
12
#302372
17
#302719
18
#303036
05
#305875
1.
1&
#320000
0$
0#
0!
1'
#320681
04
#320691
02
03
#324516
15
#340000
1!
0'
#340517
12
#360000
1#
0!
1'
#360507
14
#360691
02
#380000
1!
0'
#380517
12
#400000
1$
0#
0!
1'
#400517
13
#400681
04
#400691
02
#404102
05
#420000
1!
0'
#420517
12
#422372
07
#422776
08
#425812
0.
0&
#440000
1#
0!
1'
#440507
14
#440691
02
#444017
15
#460000
1!
0'
#460517
12
#462372
17
#462719
18
#463036
05
#465875
1.
1&
#480000
0$
0#
0!
1'
#480681
04
#480691
02
03
#484516
15
#500000
1!
0'
#500517
12
#520000
1#
0!
1'
#520507
14
#520691
02
#540000
1!
0'
#540517
12
#560000
1$
0#
0!
1'
#560517
13
#560681
04
#560691
02
#564102
05
#580000
1!
0'
#580517
12
#582372
07
#582776
08
#585812
0.
0&
#600000
1#
0!
1'
#600507
14
#600691
02
#604017
15
#620000
1!
0'
#620517
12
#622372
17
#622719
18
#623036
05
#625875
1.
1&
#640000
0$
0#
0!
1'
#640681
04
#640691
02
03
#644516
15
#660000
1!
0'
#660517
12
#680000
1#
0!
1'
#680507
14
#680691
02
#700000
1!
0'
#700517
12
#720000
1$
0#
0!
1'
#720517
13
#720681
04
#720691
02
#724102
05
#740000
1!
0'
#740517
12
#742372
07
#742776
08
#745812
0.
0&
#760000
1#
0!
1'
#760507
14
#760691
02
#764017
15
#780000
1!
0'
#780517
12
#782372
17
#782719
18
#783036
05
#785875
1.
1&
#800000
0$
0#
0!
1'
#800681
04
#800691
02
03
#804516
15
#820000
1!
0'
#820517
12
#840000
1#
0!
1'
#840507
14
#840691
02
#860000
1!
0'
#860517
12
#880000
1$
0#
0!
1'
#880517
13
#880681
04
#880691
02
#884102
05
#900000
1!
0'
#900517
12
#902372
07
#902776
08
#905812
0.
0&
#920000
1#
0!
1'
#920507
14
#920691
02
#924017
15
#940000
1!
0'
#940517
12
#942372
17
#942719
18
#943036
05
#945875
1.
1&
#960000
0$
0#
0!
1'
#960681
04
#960691
02
03
#964516
15
#980000
1!
0'
#980517
12
