电子线路/电子线路实验/上机原文件/3.18/1/simulation/qsim/aa.msim.vcd
$comment
	File created using the following command:
		vcd file aa.msim.vcd -direction
$end
$date
	Thu Mar 20 19:25:04 2025
$end
$version
	ModelSim Version 10.1d
$end
$timescale
	1ps
$end
$scope module aa_vlg_vec_tst $end
$var reg 1 ! clk $end
$var reg 1 " CLR $end
$var reg 1 # D $end
$var reg 1 $ PRN $end
$var wire 1 % Q $end
$var wire 1 & sampler $end
$scope module i1 $end
$var wire 1 ' gnd $end
$var wire 1 ( vcc $end
$var wire 1 ) unknown $end
$var tri1 1 * devclrn $end
$var tri1 1 + devpor $end
$var tri1 1 , devoe $end
$var wire 1 - Q~output_o $end
$var wire 1 . PRN~input_o $end
$var wire 1 / CLR~input_o $end
$var wire 1 0 inst~1_combout $end
$var wire 1 1 clk~input_o $end
$var wire 1 2 D~input_o $end
$var wire 1 3 inst~3_combout $end
$var wire 1 4 inst~0_combout $end
$var wire 1 5 inst~_emulated_q $end
$var wire 1 6 inst~2_combout $end
$upscope $end
$upscope $end
$enddefinitions $end
#0
$dumpvars
0!
1"
0#
1$
x%
x&
0'
1(
x)
1*
1+
1,
x-
1.
1/
x0
01
02
x3
x4
05
x6
$end
#3795
04
#40000
1!
0&
#40517
11
#42401
x5
#80000
1#
0!
1&
#80507
12
#80691
01
#120000
1!
0&
#120517
11
#140000
0"
1&
#140691
0/
#144798
06
#144800
00
#144802
14
#145419
13
#145945
05
#148119
0-
0%
#160000
0#
0!
0&
#160681
02
#160691
01
#164104
03
#200000
1!
1&
#200517
11
#240000
1#
0!
0&
#240507
12
#240691
01
#243685
13
#280000
1"
1!
1&
#280517
11
1/
#284312
04
#320000
0#
0!
0&
#320681
02
#320691
01
#324104
03
#360000
0$
1!
1&
#360517
11
#360701
0.
#364432
14
#364436
16
#364712
10
#365290
13
#367901
1-
1%
#400000
1#
0!
0&
#400507
12
#400691
01
#403675
03
#440000
1!
1&
#440517
11
#480000
1$
0#
0!
0&
#480527
1.
#480681
02
#480691
01
#483982
04
#484114
13
#520000
1!
1&
#520517
11
#522401
15
#522978
06
#526299
0-
0%
#560000
1#
0!
0&
#560507
12
#560691
01
#563675
03
#600000
1!
1&
#600517
11
#602401
05
#603052
16
#606517
1-
1%
#640000
0#
0!
0&
#640681
02
#640691
01
#644114
13
#680000
1!
1&
#680517
11
#682401
15
#682978
06
#686299
0-
0%
#720000
1#
0!
0&
#720507
12
#720691
01
#723675
03
#760000
1!
1&
#760517
11
#762401
05
#763052
16
#766517
1-
1%
#800000
0#
0!
0&
#800681
02
#800691
01
#804114
13
#840000
1!
1&
#840517
11
#842401
15
#842978
06
#846299
0-
0%
#880000
1#
0!
0&
#880507
12
#880691
01
#883675
03
#920000
1!
1&
#920517
11
#922401
05
#923052
16
#926517
1-
1%
#960000
0#
0!
0&
#960681
02
#960691
01
#964114
13
